<svg xmlns="http://www.w3.org/2000/svg" viewBox="0 0 153.1 84.6">
  <g id="Layer_2" data-name="Layer 2">
    <g id="Layer_2-2" data-name="Layer 2">
      <g>
        <g>
          <g>
            <line x1="52.2" y1="50.9" x2="51.1" y2="55" style="fill: none;stroke: #000;stroke-miterlimit: 10;stroke-width: 0.205888px"/>
            <path d="M51.9,50.8l.3-.2c.2.1.3.2.3.4s-.2.3-.4.2S51.8,51,51.9,50.8Z"/>
            <path d="M50.6,54.9a.6.6,0,0,0,.4.6c.2,0,.5-.1.5-.4a.3.3,0,0,0-.3-.5A.4.4,0,0,0,50.6,54.9Z"/>
          </g>
          <g>
            <line x1="59.1" y1="51.5" x2="52.2" y2="50.9" style="fill: none;stroke: #000;stroke-miterlimit: 10;stroke-width: 0.205888px"/>
            <path d="M59.1,51.2a.3.3,0,1,1-.3.3A.3.3,0,0,1,59.1,51.2Z"/>
            <path d="M52.2,50.4a.5.5,0,0,0-.5.5c0,.2.2.5.4.5a.5.5,0,0,0,.5-.4C52.7,50.7,52.5,50.5,52.2,50.4Z"/>
          </g>
        </g>
        <g>
          <g>
            <g>
              <line x1="119.5" y1="31.2" x2="109.9" y2="31.2" style="fill: none;stroke: #000;stroke-miterlimit: 10;stroke-width: 0.343147px"/>
              <path d="M119.5,30.4a.8.8,0,0,1,.8.8.8.8,0,0,1-1.6,0A.8.8,0,0,1,119.5,30.4Z"/>
              <path d="M109.9,30.7a.5.5,0,1,0,0,1,.5.5,0,0,0,0-1Z"/>
            </g>
            <g>
              <line x1="128.9" y1="31.7" x2="119.5" y2="31.2" style="fill: none;stroke: #000;stroke-miterlimit: 10;stroke-width: 0.343147px"/>
              <path d="M129,30.9a.8.8,0,0,1,.7.8.8.8,0,1,1-1.6,0A.9.9,0,0,1,129,30.9Z"/>
              <path d="M119.5,30.7a.4.4,0,0,0-.5.4.6.6,0,0,0,.5.6.5.5,0,0,0,.5-.5A.5.5,0,0,0,119.5,30.7Z"/>
            </g>
            <g>
              <line x1="138.1" y1="30.5" x2="128.9" y2="31.7" style="fill: none;stroke: #000;stroke-miterlimit: 10;stroke-width: 0.343147px"/>
              <path d="M138,29.7a.7.7,0,0,1,.9.7.6.6,0,0,1-.6.8.7.7,0,0,1-.9-.6A.7.7,0,0,1,138,29.7Z"/>
              <path d="M128.8,31.2c-.2,0-.4.3-.4.6a.5.5,0,1,0,1-.2C129.4,31.4,129.1,31.2,128.8,31.2Z"/>
            </g>
            <g>
              <line x1="145.4" y1="26.7" x2="138.1" y2="30.5" style="fill: none;stroke: #000;stroke-miterlimit: 10;stroke-width: 0.343147px"/>
              <path d="M145,26a.9.9,0,0,1,1.1.3.8.8,0,0,1-.4,1.1A.8.8,0,0,1,145,26Z"/>
              <path d="M137.9,30a.6.6,0,0,0-.2.7.4.4,0,0,0,.7.2.5.5,0,1,0-.5-.9Z"/>
            </g>
            <g>
              <line x1="152.4" y1="23.6" x2="145.4" y2="26.7" style="fill: none;stroke: #000;stroke-miterlimit: 10;stroke-width: 0.343147px"/>
              <path d="M152,22.9a.8.8,0,0,1,1.1.4c.1.4,0,.9-.4,1a.8.8,0,0,1-1.1-.4A1,1,0,0,1,152,22.9Z"/>
              <path d="M145.2,26.2a.5.5,0,0,0-.3.7.5.5,0,0,0,.7.3.5.5,0,0,0,.2-.7A.4.4,0,0,0,145.2,26.2Z"/>
            </g>
            <g>
              <line x1="152.1" y1="21.2" x2="152.4" y2="23.6" style="fill: none;stroke: #000;stroke-miterlimit: 10;stroke-width: 0.343147px"/>
              <path d="M151.4,21.3a.8.8,0,1,1,1.5-.1.8.8,0,1,1-1.5.1Z"/>
              <path d="M151.8,23.7c.1.2.3.5.6.4a.5.5,0,0,0,.5-.5.6.6,0,0,0-.6-.5A.6.6,0,0,0,151.8,23.7Z"/>
            </g>
            <g>
              <line x1="146.7" y1="19.9" x2="152.1" y2="21.2" style="fill: none;stroke: #000;stroke-miterlimit: 10;stroke-width: 0.343147px"/>
              <path d="M146.5,20.6a.7.7,0,0,1-.5-.9.8.8,0,0,1,.9-.6.9.9,0,0,1,.6,1A.7.7,0,0,1,146.5,20.6Z"/>
              <path d="M152,21.7a.4.4,0,0,0,.6-.4c.1-.2-.1-.5-.3-.6a.7.7,0,0,0-.7.4C151.6,21.4,151.7,21.7,152,21.7Z"/>
            </g>
            <g>
              <line x1="140.6" y1="21.9" x2="146.7" y2="19.9" style="fill: none;stroke: #000;stroke-miterlimit: 10;stroke-width: 0.343147px"/>
              <path d="M140.8,22.6c-.4.2-.8,0-1-.5a.7.7,0,0,1,.5-.9.7.7,0,0,1,1,.5A.7.7,0,0,1,140.8,22.6Z"/>
              <path d="M146.9,20.4a.6.6,0,0,0,.3-.7c-.1-.2-.4-.4-.6-.3a.6.6,0,0,0-.4.7A.6.6,0,0,0,146.9,20.4Z"/>
            </g>
            <g>
              <line x1="133.9" y1="24.2" x2="140.6" y2="21.9" style="fill: none;stroke: #000;stroke-miterlimit: 10;stroke-width: 0.343147px"/>
              <path d="M134.1,24.9a.8.8,0,1,1-.5-1.5.8.8,0,0,1,.5,1.5Z"/>
              <path d="M140.7,22.4a.5.5,0,0,0,.3-.7c0-.2-.3-.4-.6-.3a.5.5,0,0,0-.3.7C140.2,22.3,140.5,22.5,140.7,22.4Z"/>
            </g>
            <g>
              <line x1="129.4" y1="22.5" x2="133.9" y2="24.2" style="fill: none;stroke: #000;stroke-miterlimit: 10;stroke-width: 0.343147px"/>
              <path d="M129.1,23.2a.8.8,0,0,1-.5-1,.7.7,0,0,1,1-.4.8.8,0,0,1,.5,1A.7.7,0,0,1,129.1,23.2Z"/>
              <path d="M133.7,24.7a.7.7,0,0,0,.7-.4c.1-.2-.1-.5-.3-.6a.5.5,0,1,0-.4,1Z"/>
            </g>
            <g>
              <line x1="123.2" y1="21.9" x2="129.4" y2="22.5" style="fill: none;stroke: #000;stroke-miterlimit: 10;stroke-width: 0.343147px"/>
              <path d="M123.2,22.7a.8.8,0,0,1,.1-1.5.8.8,0,1,1-.1,1.5Z"/>
              <path d="M129.3,23a.5.5,0,0,0,.6-.4.6.6,0,0,0-.5-.6.5.5,0,0,0-.5.5C128.8,22.7,129,23,129.3,23Z"/>
            </g>
            <g>
              <line x1="115.8" y1="19.2" x2="123.2" y2="21.9" style="fill: none;stroke: #000;stroke-miterlimit: 10;stroke-width: 0.343147px"/>
              <path d="M115.6,20a.8.8,0,0,1,.5-1.5.8.8,0,0,1,.5,1A.9.9,0,0,1,115.6,20Z"/>
              <path d="M123.1,22.4a.5.5,0,1,0-.3-.6A.4.4,0,0,0,123.1,22.4Z"/>
            </g>
            <g>
              <line x1="109.4" y1="17.8" x2="115.8" y2="19.2" style="fill: none;stroke: #000;stroke-miterlimit: 10;stroke-width: 0.343147px"/>
              <path d="M109.2,18.6a.8.8,0,0,1-.6-.9.8.8,0,0,1,1-.6.9.9,0,0,1,.6.9A.8.8,0,0,1,109.2,18.6Z"/>
              <path d="M115.7,19.7a.4.4,0,0,0,.6-.4c.1-.2-.1-.5-.4-.6a.6.6,0,0,0-.6.4C115.3,19.4,115.4,19.7,115.7,19.7Z"/>
            </g>
            <g>
              <line x1="106" y1="15.6" x2="109.4" y2="17.8" style="fill: none;stroke: #000;stroke-miterlimit: 10;stroke-width: 0.343147px"/>
              <path d="M105.5,16.2a.8.8,0,0,1-.2-1,.7.7,0,0,1,1.1-.2.8.8,0,0,1,.2,1A.7.7,0,0,1,105.5,16.2Z"/>
              <path d="M109.1,18.3c.3.1.6.1.7-.2a.5.5,0,0,0-.1-.7.4.4,0,0,0-.7.2A.5.5,0,0,0,109.1,18.3Z"/>
            </g>
            <g>
              <line x1="110.4" y1="13.1" x2="106" y2="15.6" style="fill: none;stroke: #000;stroke-miterlimit: 10;stroke-width: 0.343147px"/>
              <path d="M110,12.5a.8.8,0,1,1-.3,1A.7.7,0,0,1,110,12.5Z"/>
              <path d="M105.7,15.1a.7.7,0,0,0-.2.7.5.5,0,0,0,.7.3.6.6,0,0,0,.2-.8A.6.6,0,0,0,105.7,15.1Z"/>
            </g>
            <g>
              <line x1="117.6" y1="11.4" x2="110.4" y2="13.1" style="fill: none;stroke: #000;stroke-miterlimit: 10;stroke-width: 0.343147px"/>
              <path d="M117.4,10.7a.7.7,0,0,1,.9.6.7.7,0,0,1-.5.9.9.9,0,0,1-1-.6A.8.8,0,0,1,117.4,10.7Z"/>
              <path d="M110.3,12.6a.6.6,0,0,0-.4.7.5.5,0,0,0,.6.3.4.4,0,0,0,.4-.6A.6.6,0,0,0,110.3,12.6Z"/>
            </g>
            <g>
              <line x1="123.3" y1="8.6" x2="117.6" y2="11.4" style="fill: none;stroke: #000;stroke-miterlimit: 10;stroke-width: 0.343147px"/>
              <path d="M122.9,7.9a.8.8,0,0,1,1.1.3.7.7,0,0,1-.4,1,.7.7,0,0,1-1-.3A.8.8,0,0,1,122.9,7.9Z"/>
              <path d="M117.4,11a.5.5,0,0,0-.3.7.7.7,0,0,0,.7.2.5.5,0,0,0,.3-.7C117.9,10.9,117.6,10.8,117.4,11Z"/>
            </g>
            <g>
              <line x1="125" y1="3.9" x2="123.3" y2="8.6" style="fill: none;stroke: #000;stroke-miterlimit: 10;stroke-width: 0.343147px"/>
              <path d="M124.2,3.7a.9.9,0,0,1,1-.5.9.9,0,0,1,.5,1,.8.8,0,0,1-1,.5A.9.9,0,0,1,124.2,3.7Z"/>
              <path d="M122.8,8.4a.4.4,0,0,0,.3.6.5.5,0,0,0,.7-.3c.1-.2-.1-.5-.3-.6A.5.5,0,0,0,122.8,8.4Z"/>
            </g>
            <g>
              <line x1="122" y1="0.8" x2="125" y2="3.9" style="fill: none;stroke: #000;stroke-miterlimit: 10;stroke-width: 0.343147px"/>
              <path d="M121.4,1.3a.8.8,0,0,1,.1-1.1.8.8,0,0,1,1.1,0,.8.8,0,0,1-.1,1.1A.8.8,0,0,1,121.4,1.3Z"/>
              <path d="M124.6,4.3a.5.5,0,0,0,.7,0,.6.6,0,0,0,.1-.7.6.6,0,0,0-.8,0A.5.5,0,0,0,124.6,4.3Z"/>
            </g>
            <g>
              <line x1="113.3" y1="2.5" x2="122" y2="0.8" style="fill: none;stroke: #000;stroke-miterlimit: 10;stroke-width: 0.343147px"/>
              <path d="M113.5,3.2a.8.8,0,0,1-.9-.6.8.8,0,1,1,.9.6Z"/>
              <path d="M122.1,1.3c.3-.1.5-.3.4-.6s-.3-.5-.6-.4a.4.4,0,0,0-.4.6C121.5,1.2,121.8,1.3,122.1,1.3Z"/>
            </g>
            <g>
              <line x1="105.7" y1="5.5" x2="113.3" y2="2.5" style="fill: none;stroke: #000;stroke-miterlimit: 10;stroke-width: 0.343147px"/>
              <path d="M106,6.3a.9.9,0,0,1-1-.5.9.9,0,0,1,.5-1,.8.8,0,0,1,1,.4A1,1,0,0,1,106,6.3Z"/>
              <path d="M113.5,2.9a.4.4,0,0,0,.3-.6.5.5,0,0,0-.7-.3.5.5,0,0,0-.2.7C113,2.9,113.3,3.1,113.5,2.9Z"/>
            </g>
            <g>
              <line x1="98.4" y1="6.4" x2="105.7" y2="5.5" style="fill: none;stroke: #000;stroke-miterlimit: 10;stroke-width: 0.343147px"/>
              <path d="M98.4,7.2a.8.8,0,1,1,.7-.9A.8.8,0,0,1,98.4,7.2Z"/>
              <path d="M105.8,6a.5.5,0,0,0,.5-.5.6.6,0,1,0-1.1.1C105.3,5.9,105.5,6.1,105.8,6Z"/>
            </g>
            <g>
              <line x1="90.1" y1="8.8" x2="98.4" y2="6.4" style="fill: none;stroke: #000;stroke-miterlimit: 10;stroke-width: 0.343147px"/>
              <path d="M90.3,9.5a.7.7,0,0,1-1-.5.9.9,0,0,1,.5-1,.8.8,0,0,1,1,.6A.7.7,0,0,1,90.3,9.5Z"/>
              <path d="M98.5,6.9a.6.6,0,0,0,.4-.6.6.6,0,0,0-.7-.4.5.5,0,0,0-.3.7C97.9,6.8,98.2,7,98.5,6.9Z"/>
            </g>
            <g>
              <line x1="82.2" y1="15.9" x2="90.1" y2="8.8" style="fill: none;stroke: #000;stroke-miterlimit: 10;stroke-width: 0.343147px"/>
              <path d="M82.7,16.5a.8.8,0,1,1,.1-1.1A.8.8,0,0,1,82.7,16.5Z"/>
              <path d="M90.4,9.2a.6.6,0,0,0,0-.8.5.5,0,0,0-.7.7A.4.4,0,0,0,90.4,9.2Z"/>
            </g>
            <g>
              <line x1="73.9" y1="20" x2="82.2" y2="15.9" style="fill: none;stroke: #000;stroke-miterlimit: 10;stroke-width: 0.343147px"/>
              <path d="M74.2,20.7a.7.7,0,0,1-1-.3.8.8,0,0,1,.3-1.1.8.8,0,0,1,1.1.4A.8.8,0,0,1,74.2,20.7Z"/>
              <path d="M82.4,16.4a.5.5,0,1,0-.7-.3A.6.6,0,0,0,82.4,16.4Z"/>
            </g>
            <g>
              <line x1="63.3" y1="22.9" x2="73.9" y2="20" style="fill: none;stroke: #000;stroke-miterlimit: 10;stroke-width: 0.343147px"/>
              <path d="M63.5,23.6a.7.7,0,0,1-.9-.5.8.8,0,0,1,.5-1,.8.8,0,0,1,1,.6A.8.8,0,0,1,63.5,23.6Z"/>
              <path d="M74,20.5c.3,0,.4-.3.4-.6a.7.7,0,0,0-.7-.4.6.6,0,0,0-.3.7C73.4,20.4,73.7,20.6,74,20.5Z"/>
            </g>
            <g>
              <line x1="51.5" y1="22.1" x2="63.3" y2="22.9" style="fill: none;stroke: #000;stroke-miterlimit: 10;stroke-width: 0.343147px"/>
              <path d="M51.5,22.9a.7.7,0,0,1-.7-.8.7.7,0,0,1,.8-.7.8.8,0,0,1-.1,1.5Z"/>
              <path d="M63.3,23.4a.5.5,0,0,0,.5-.5c.1-.3-.2-.5-.4-.6a.6.6,0,1,0-.1,1.1Z"/>
            </g>
            <g>
              <line x1="28.3" y1="28.4" x2="44.4" y2="26.6" style="fill: none;stroke: #000;stroke-miterlimit: 10;stroke-width: 0.343147px"/>
              <path d="M28.4,29.2a.8.8,0,0,1-.9-.7,1,1,0,0,1,.7-.9.8.8,0,0,1,.2,1.6Z"/>
              <path d="M44.4,27.1a.5.5,0,0,0,.5-.5.6.6,0,0,0-.6-.5c-.2.1-.5.3-.4.6S44.2,27.2,44.4,27.1Z"/>
            </g>
            <g>
              <line x1="10.5" y1="29.6" x2="28.3" y2="28.4" style="fill: none;stroke: #000;stroke-miterlimit: 10;stroke-width: 0.343147px"/>
              <path d="M10.6,30.3a.8.8,0,1,1-.1-1.5.8.8,0,0,1,.1,1.5Z"/>
              <path d="M28.3,28.9a.5.5,0,0,0,.5-.5.6.6,0,0,0-.6-.5.4.4,0,0,0-.4.5A.5.5,0,0,0,28.3,28.9Z"/>
            </g>
            <g>
              <line x1="22.4" y1="62.8" x2="10.7" y2="63.3" style="fill: none;stroke: #000;stroke-miterlimit: 10;stroke-width: 0.343147px"/>
              <path d="M22.3,62a.8.8,0,0,1,.8.7.8.8,0,0,1-1.5.1A.8.8,0,0,1,22.3,62Z"/>
              <path d="M10.7,62.7a.6.6,0,0,0-.5.6.5.5,0,0,0,.5.5.5.5,0,0,0,.5-.6A.5.5,0,0,0,10.7,62.7Z"/>
            </g>
            <g>
              <line x1="36.4" y1="57.9" x2="22.4" y2="62.8" style="fill: none;stroke: #000;stroke-miterlimit: 10;stroke-width: 0.343147px"/>
              <path d="M36.2,57.2a.8.8,0,1,1,.5,1.5.8.8,0,0,1-1-.5A.9.9,0,0,1,36.2,57.2Z"/>
              <path d="M22.2,62.3a.4.4,0,0,0-.3.6c.1.3.4.5.6.4a.5.5,0,0,0,.3-.7C22.8,62.3,22.5,62.2,22.2,62.3Z"/>
            </g>
            <g>
              <line x1="62.1" y1="45.7" x2="46" y2="54.1" style="fill: none;stroke: #000;stroke-miterlimit: 10;stroke-width: 0.343147px"/>
              <path d="M61.8,45a.8.8,0,0,1,1,.3.8.8,0,0,1-.3,1.1.9.9,0,0,1-1.1-.3A.8.8,0,0,1,61.8,45Z"/>
              <path d="M45.8,53.7a.5.5,0,0,0-.3.7.7.7,0,0,0,.7.2.4.4,0,0,0,.2-.7A.5.5,0,0,0,45.8,53.7Z"/>
            </g>
            <g>
              <line x1="77.7" y1="40.1" x2="62.1" y2="45.7" style="fill: none;stroke: #000;stroke-miterlimit: 10;stroke-width: 0.343147px"/>
              <path d="M77.5,39.4a.6.6,0,0,1,.9.4.7.7,0,0,1-.4,1,.7.7,0,0,1-1-.5A.7.7,0,0,1,77.5,39.4Z"/>
              <path d="M62,45.2a.6.6,0,0,0-.4.7.6.6,0,0,0,.7.3.5.5,0,0,0,.3-.7C62.5,45.3,62.2,45.1,62,45.2Z"/>
            </g>
            <g>
              <line x1="83.4" y1="37.3" x2="77.7" y2="40.1" style="fill: none;stroke: #000;stroke-miterlimit: 10;stroke-width: 0.343147px"/>
              <path d="M83,36.6a.9.9,0,0,1,1.1.3.8.8,0,0,1-.4,1.1.7.7,0,0,1-1-.4A.7.7,0,0,1,83,36.6Z"/>
              <path d="M77.5,39.6a.4.4,0,0,0-.2.7c.1.3.4.4.6.2a.4.4,0,0,0,.3-.6A.5.5,0,0,0,77.5,39.6Z"/>
            </g>
            <g>
              <line x1="92.9" y1="36.2" x2="83.4" y2="37.3" style="fill: none;stroke: #000;stroke-miterlimit: 10;stroke-width: 0.343147px"/>
              <path d="M92.8,35.5a.8.8,0,0,1,.9.6.9.9,0,0,1-.7.9,1,1,0,0,1-.9-.7A.8.8,0,0,1,92.8,35.5Z"/>
              <path d="M83.3,36.8c-.3,0-.5.3-.4.5a.5.5,0,0,0,.5.5.6.6,0,0,0,.5-.6A.4.4,0,0,0,83.3,36.8Z"/>
            </g>
            <g>
              <line x1="98.5" y1="35.3" x2="92.9" y2="36.2" style="fill: none;stroke: #000;stroke-miterlimit: 10;stroke-width: 0.343147px"/>
              <path d="M98.4,34.5a.6.6,0,0,1,.8.6.7.7,0,0,1-.6.9.8.8,0,0,1-.9-.6A.9.9,0,0,1,98.4,34.5Z"/>
              <path d="M92.8,35.7c-.3.1-.5.3-.4.6a.5.5,0,0,0,1-.2C93.4,35.9,93.1,35.7,92.8,35.7Z"/>
            </g>
            <g>
              <line x1="112.2" y1="36.1" x2="98.5" y2="35.3" style="fill: none;stroke: #000;stroke-miterlimit: 10;stroke-width: 0.343147px"/>
              <path d="M112.3,35.3a.8.8,0,1,1-.1,1.5.8.8,0,0,1-.8-.8A.9.9,0,0,1,112.3,35.3Z"/>
              <path d="M98.5,34.8a.4.4,0,0,0-.5.4.6.6,0,0,0,.5.6.5.5,0,0,0,.5-.5A.5.5,0,0,0,98.5,34.8Z"/>
            </g>
            <g>
              <line x1="124.9" y1="34.7" x2="112.2" y2="36.1" style="fill: none;stroke: #000;stroke-miterlimit: 10;stroke-width: 0.343147px"/>
              <path d="M124.8,34a.8.8,0,1,1,.2,1.5.9.9,0,0,1-.9-.7A.8.8,0,0,1,124.8,34Z"/>
              <path d="M112.2,35.5a.6.6,0,0,0-.5.6.6.6,0,0,0,.6.5c.3-.1.5-.3.4-.6A.5.5,0,0,0,112.2,35.5Z"/>
            </g>
            <g>
              <line x1="133" y1="34.5" x2="124.9" y2="34.7" style="fill: none;stroke: #000;stroke-miterlimit: 10;stroke-width: 0.343147px"/>
              <path d="M133,33.8a.8.8,0,0,1,.8.7.8.8,0,0,1-.8.8.8.8,0,0,1-.8-.7A.7.7,0,0,1,133,33.8Z"/>
              <path d="M124.9,34.2a.5.5,0,0,0-.5.5c0,.3.2.6.5.5a.5.5,0,0,0,0-1Z"/>
            </g>
            <g>
              <line x1="138.1" y1="30.5" x2="133" y2="34.5" style="fill: none;stroke: #000;stroke-miterlimit: 10;stroke-width: 0.343147px"/>
              <path d="M137.7,29.9a.7.7,0,0,1,1.1.1.8.8,0,1,1-1.3.9A.7.7,0,0,1,137.7,29.9Z"/>
              <path d="M132.7,34.1a.6.6,0,0,0-.1.8.5.5,0,0,0,.8-.7A.6.6,0,0,0,132.7,34.1Z"/>
            </g>
            <g>
              <line x1="148.9" y1="19" x2="148.6" y2="20.4" style="fill: none;stroke: #000;stroke-miterlimit: 10;stroke-width: 0.343147px"/>
              <path d="M148.1,18.8a.8.8,0,1,1,1.5.3.7.7,0,0,1-.9.6A.7.7,0,0,1,148.1,18.8Z"/>
              <path d="M148.1,20.3a.6.6,0,0,0,.4.6c.3,0,.6-.2.6-.4a.4.4,0,0,0-.4-.6C148.4,19.8,148.2,20,148.1,20.3Z"/>
            </g>
            <g>
              <line x1="146.6" y1="17.5" x2="148.9" y2="19" style="fill: none;stroke: #000;stroke-miterlimit: 10;stroke-width: 0.343147px"/>
              <path d="M146.2,18.1a.6.6,0,0,1-.2-1,.8.8,0,0,1,1.1-.3.9.9,0,0,1,.2,1.1A.7.7,0,0,1,146.2,18.1Z"/>
              <path d="M148.6,19.4a.5.5,0,0,0,.7-.1.5.5,0,0,0-.1-.7.6.6,0,0,0-.8.1A.6.6,0,0,0,148.6,19.4Z"/>
            </g>
            <g>
              <line x1="143.3" y1="18.7" x2="146.6" y2="17.5" style="fill: none;stroke: #000;stroke-miterlimit: 10;stroke-width: 0.343147px"/>
              <path d="M143.6,19.4a.8.8,0,0,1-1-.5.8.8,0,1,1,1,.5Z"/>
              <path d="M146.8,18a.5.5,0,0,0,.3-.7c-.1-.2-.4-.4-.6-.3a.6.6,0,0,0-.4.7A.6.6,0,0,0,146.8,18Z"/>
            </g>
            <g>
              <line x1="139.5" y1="21.5" x2="143.3" y2="18.7" style="fill: none;stroke: #000;stroke-miterlimit: 10;stroke-width: 0.343147px"/>
              <path d="M140,22.1a.8.8,0,0,1-1.1-.1.8.8,0,0,1,1.3-.9A.8.8,0,0,1,140,22.1Z"/>
              <path d="M143.6,19.1a.5.5,0,0,0,.1-.8c-.1-.2-.5-.2-.7-.1a.8.8,0,0,0-.1.8A.6.6,0,0,0,143.6,19.1Z"/>
            </g>
            <g>
              <line x1="136.2" y1="22.1" x2="139.5" y2="21.5" style="fill: none;stroke: #000;stroke-miterlimit: 10;stroke-width: 0.343147px"/>
              <path d="M136.4,22.8a.7.7,0,0,1-.9-.6A.8.8,0,1,1,137,22,.6.6,0,0,1,136.4,22.8Z"/>
              <path d="M139.6,22a.4.4,0,0,0,.4-.6c0-.2-.3-.4-.5-.4a.6.6,0,0,0-.5.6C139.1,21.9,139.3,22.1,139.6,22Z"/>
            </g>
            <g>
              <line x1="132.1" y1="23.5" x2="136.2" y2="22.1" style="fill: none;stroke: #000;stroke-miterlimit: 10;stroke-width: 0.343147px"/>
              <path d="M132.3,24.2c-.4.2-.8-.1-1-.5a.7.7,0,0,1,.5-.9.7.7,0,0,1,1,.4A.8.8,0,0,1,132.3,24.2Z"/>
              <path d="M136.4,22.6a.5.5,0,0,0,.3-.7.4.4,0,0,0-.6-.3c-.3.1-.5.4-.4.6A.6.6,0,0,0,136.4,22.6Z"/>
            </g>
            <g>
              <line x1="130.9" y1="19.7" x2="127.7" y2="22.4" style="fill: none;stroke: #000;stroke-miterlimit: 10;stroke-width: 0.343147px"/>
              <path d="M130.4,19.1a.8.8,0,0,1,1,1.2.9.9,0,0,1-1.1-.1A.8.8,0,0,1,130.4,19.1Z"/>
              <path d="M127.3,22c-.2.1-.2.5,0,.7a.5.5,0,1,0,.8-.7A.6.6,0,0,0,127.3,22Z"/>
            </g>
            <g>
              <line x1="133.9" y1="18.5" x2="130.9" y2="19.7" style="fill: none;stroke: #000;stroke-miterlimit: 10;stroke-width: 0.343147px"/>
              <path d="M133.6,17.8a.8.8,0,1,1-.4,1A.7.7,0,0,1,133.6,17.8Z"/>
              <path d="M130.7,19.2a.5.5,0,0,0-.3.7.6.6,0,0,0,.7.3.5.5,0,1,0-.4-1Z"/>
            </g>
            <g>
              <line x1="136.3" y1="16.3" x2="133.9" y2="18.5" style="fill: none;stroke: #000;stroke-miterlimit: 10;stroke-width: 0.343147px"/>
              <path d="M135.8,15.8a.8.8,0,0,1,1.1,0,.8.8,0,1,1-1.2,1A.8.8,0,0,1,135.8,15.8Z"/>
              <path d="M133.5,18.1a.5.5,0,0,0,0,.7.5.5,0,1,0,.8-.6A.5.5,0,0,0,133.5,18.1Z"/>
            </g>
            <g>
              <line x1="139.3" y1="14.4" x2="136.3" y2="16.3" style="fill: none;stroke: #000;stroke-miterlimit: 10;stroke-width: 0.343147px"/>
              <path d="M138.9,13.8a.7.7,0,0,1,1,.2.7.7,0,0,1-.2,1.1.8.8,0,0,1-1.1-.3A.7.7,0,0,1,138.9,13.8Z"/>
              <path d="M136,15.9a.5.5,0,0,0-.1.7c.1.3.5.3.7.2a.7.7,0,0,0,.2-.7A.5.5,0,0,0,136,15.9Z"/>
            </g>
            <g>
              <line x1="142.2" y1="14.6" x2="139.3" y2="14.4" style="fill: none;stroke: #000;stroke-miterlimit: 10;stroke-width: 0.343147px"/>
              <path d="M142.2,13.9a.8.8,0,0,1,.8.8.9.9,0,0,1-.9.7.8.8,0,0,1-.7-.8A.7.7,0,0,1,142.2,13.9Z"/>
              <path d="M139.3,13.9a.5.5,0,0,0-.5.5.4.4,0,0,0,.4.5.4.4,0,0,0,.6-.4A.6.6,0,0,0,139.3,13.9Z"/>
            </g>
            <g>
              <line x1="143.1" y1="16.2" x2="142.2" y2="14.6" style="fill: none;stroke: #000;stroke-miterlimit: 10;stroke-width: 0.343147px"/>
              <path d="M143.8,15.8a.9.9,0,0,1-.3,1.1.9.9,0,0,1-1.1-.3.8.8,0,0,1,.3-1.1A.8.8,0,0,1,143.8,15.8Z"/>
              <path d="M142.6,14.4c-.1-.3-.4-.3-.7-.2a.6.6,0,0,0-.2.7.7.7,0,0,0,.7.2C142.7,14.9,142.8,14.6,142.6,14.4Z"/>
            </g>
            <g>
              <line x1="141.7" y1="18.1" x2="143.1" y2="16.2" style="fill: none;stroke: #000;stroke-miterlimit: 10;stroke-width: 0.343147px"/>
              <path d="M142.4,18.5a.7.7,0,0,1-1.1.2.9.9,0,0,1-.2-1.1.9.9,0,0,1,1.1-.2A.9.9,0,0,1,142.4,18.5Z"/>
              <path d="M143.5,16.5a.5.5,0,0,0-.1-.7.5.5,0,0,0-.7.1.5.5,0,0,0,.8.6Z"/>
            </g>
            <g>
              <line x1="139.4" y1="19.7" x2="141.7" y2="18.1" style="fill: none;stroke: #000;stroke-miterlimit: 10;stroke-width: 0.343147px"/>
              <path d="M139.9,20.3a.8.8,0,0,1-1.1-.1.7.7,0,0,1,.2-1.1.6.6,0,0,1,1,.2A.7.7,0,0,1,139.9,20.3Z"/>
              <path d="M142,18.5a.5.5,0,0,0,.2-.7.4.4,0,0,0-.7-.1c-.3.1-.3.4-.2.7A.5.5,0,0,0,142,18.5Z"/>
            </g>
            <g>
              <line x1="137.1" y1="21.9" x2="139.4" y2="19.7" style="fill: none;stroke: #000;stroke-miterlimit: 10;stroke-width: 0.343147px"/>
              <path d="M137.6,22.5a.8.8,0,1,1,0-1.1A.8.8,0,0,1,137.6,22.5Z"/>
              <path d="M139.8,20.1a.5.5,0,0,0,0-.7.5.5,0,0,0-.7-.1.5.5,0,0,0-.1.8A.6.6,0,0,0,139.8,20.1Z"/>
            </g>
            <g>
              <line x1="118.6" y1="19" x2="116.2" y2="19.4" style="fill: none;stroke: #000;stroke-miterlimit: 10;stroke-width: 0.343147px"/>
              <path d="M118.5,18.3a.7.7,0,0,1,.9.6c.1.5-.2.8-.7.9a.7.7,0,0,1-.8-.7A.6.6,0,0,1,118.5,18.3Z"/>
              <path d="M116.1,18.9a.5.5,0,0,0-.4.5.6.6,0,0,0,.6.5c.3-.1.5-.3.4-.6A.4.4,0,0,0,116.1,18.9Z"/>
            </g>
            <g>
              <line x1="120.7" y1="16.9" x2="118.6" y2="19" style="fill: none;stroke: #000;stroke-miterlimit: 10;stroke-width: 0.343147px"/>
              <path d="M120.2,16.4a.8.8,0,1,1,0,1.1A.8.8,0,0,1,120.2,16.4Z"/>
              <path d="M118.3,18.7a.5.5,0,1,0,.7,0A.5.5,0,0,0,118.3,18.7Z"/>
            </g>
            <g>
              <line x1="123" y1="15.8" x2="120.7" y2="16.9" style="fill: none;stroke: #000;stroke-miterlimit: 10;stroke-width: 0.343147px"/>
              <path d="M122.6,15.1a.8.8,0,0,1,1.1.4.7.7,0,0,1-.4,1,.7.7,0,0,1-1-.3A.9.9,0,0,1,122.6,15.1Z"/>
              <path d="M120.5,16.5a.5.5,0,1,0,.7.2A.6.6,0,0,0,120.5,16.5Z"/>
            </g>
            <g>
              <line x1="124.4" y1="14.3" x2="123" y2="15.8" style="fill: none;stroke: #000;stroke-miterlimit: 10;stroke-width: 0.343147px"/>
              <path d="M123.9,13.8a.8.8,0,1,1,0,1.1A.8.8,0,0,1,123.9,13.8Z"/>
              <path d="M122.6,15.5a.5.5,0,0,0,0,.7.6.6,0,0,0,.8,0,.5.5,0,0,0,0-.7A.6.6,0,0,0,122.6,15.5Z"/>
            </g>
            <g>
              <line x1="127.9" y1="11.5" x2="124.4" y2="14.3" style="fill: none;stroke: #000;stroke-miterlimit: 10;stroke-width: 0.343147px"/>
              <path d="M127.4,10.9a.8.8,0,0,1,1.1.1.7.7,0,0,1-.1,1.1.8.8,0,0,1-1.1-.1A.9.9,0,0,1,127.4,10.9Z"/>
              <path d="M124.1,13.9a.8.8,0,0,0-.1.8.6.6,0,0,0,.8,0c.2-.1.2-.5,0-.7S124.3,13.8,124.1,13.9Z"/>
            </g>
            <g>
              <line x1="130.6" y1="11.6" x2="127.9" y2="11.5" style="fill: none;stroke: #000;stroke-miterlimit: 10;stroke-width: 0.343147px"/>
              <path d="M130.6,10.8a.7.7,0,0,1,.7.8.7.7,0,0,1-.8.8.8.8,0,0,1-.7-.8A.8.8,0,0,1,130.6,10.8Z"/>
              <path d="M128,11a.6.6,0,0,0-.6.5.5.5,0,0,0,.5.5.5.5,0,0,0,.5-.5A.4.4,0,0,0,128,11Z"/>
            </g>
            <g>
              <line x1="131.1" y1="13.1" x2="130.6" y2="11.6" style="fill: none;stroke: #000;stroke-miterlimit: 10;stroke-width: 0.343147px"/>
              <path d="M131.8,12.8a.7.7,0,0,1-.5,1,.7.7,0,0,1-.9-.5.7.7,0,0,1,.4-1A.8.8,0,0,1,131.8,12.8Z"/>
              <path d="M131.1,11.4a.6.6,0,0,0-.7-.3.5.5,0,0,0-.3.7c.1.2.4.4.6.3A.6.6,0,0,0,131.1,11.4Z"/>
            </g>
            <g>
              <line x1="127.9" y1="16.9" x2="131.1" y2="13.1" style="fill: none;stroke: #000;stroke-miterlimit: 10;stroke-width: 0.343147px"/>
              <path d="M128.5,17.4a.7.7,0,0,1-1.1.1.7.7,0,0,1-.1-1,.8.8,0,0,1,1.1-.2A.9.9,0,0,1,128.5,17.4Z"/>
              <path d="M131.5,13.4a.5.5,0,0,0-.8-.7.5.5,0,0,0,.1.8A.6.6,0,0,0,131.5,13.4Z"/>
            </g>
            <g>
              <line x1="125.8" y1="19.5" x2="127.9" y2="16.9" style="fill: none;stroke: #000;stroke-miterlimit: 10;stroke-width: 0.343147px"/>
              <path d="M126.4,20a.8.8,0,1,1-1.2-1,.8.8,0,0,1,1.1-.1A.9.9,0,0,1,126.4,20Z"/>
              <path d="M128.3,17.3a.5.5,0,1,0-.8-.7.4.4,0,0,0,.1.7A.5.5,0,0,0,128.3,17.3Z"/>
            </g>
            <g>
              <line x1="123.2" y1="21.9" x2="125.8" y2="19.5" style="fill: none;stroke: #000;stroke-miterlimit: 10;stroke-width: 0.343147px"/>
              <path d="M123.8,22.5a.8.8,0,1,1,0-1.1A.8.8,0,0,1,123.8,22.5Z"/>
              <path d="M126.1,19.9a.6.6,0,0,0,.1-.7.5.5,0,0,0-.8-.1.6.6,0,0,0,0,.8A.5.5,0,0,0,126.1,19.9Z"/>
            </g>
            <g>
              <line x1="117" y1="4.9" x2="117.1" y2="1.7" style="fill: none;stroke: #000;stroke-miterlimit: 10;stroke-width: 0.343147px"/>
              <path d="M117.8,4.9a.8.8,0,0,1-.8.8.9.9,0,0,1-.8-.8.9.9,0,0,1,.8-.8C117.5,4.2,117.8,4.5,117.8,4.9Z"/>
              <path d="M117.6,1.7a.5.5,0,0,0-.5-.5.5.5,0,0,0-.5.5.5.5,0,0,0,.5.5C117.4,2.3,117.6,2,117.6,1.7Z"/>
            </g>
            <g>
              <line x1="119.5" y1="8.6" x2="117" y2="4.9" style="fill: none;stroke: #000;stroke-miterlimit: 10;stroke-width: 0.343147px"/>
              <path d="M120.1,8.1a.7.7,0,0,1-.2,1.1.6.6,0,0,1-1-.2.7.7,0,0,1,.2-1.1A.8.8,0,0,1,120.1,8.1Z"/>
              <path d="M117.4,4.6a.5.5,0,0,0-.8.6.5.5,0,0,0,.7.1A.5.5,0,0,0,117.4,4.6Z"/>
            </g>
            <g>
              <line x1="122.2" y1="7.3" x2="119.5" y2="8.6" style="fill: none;stroke: #000;stroke-miterlimit: 10;stroke-width: 0.343147px"/>
              <path d="M121.9,6.6a.8.8,0,0,1,.6,1.4.8.8,0,0,1-1-.4A.7.7,0,0,1,121.9,6.6Z"/>
              <path d="M119.3,8.1a.5.5,0,0,0-.3.7c.2.2.5.4.7.2a.4.4,0,0,0,.3-.6A.6.6,0,0,0,119.3,8.1Z"/>
            </g>
            <g>
              <line x1="123.2" y1="4.5" x2="122.2" y2="7.3" style="fill: none;stroke: #000;stroke-miterlimit: 10;stroke-width: 0.343147px"/>
              <path d="M122.5,4.3c.2-.4.6-.7,1-.5a.8.8,0,0,1,.5,1,.7.7,0,0,1-1,.4A.7.7,0,0,1,122.5,4.3Z"/>
              <path d="M121.7,7.1a.6.6,0,0,0,.3.7.5.5,0,0,0,.4-1A.6.6,0,0,0,121.7,7.1Z"/>
            </g>
            <g>
              <line x1="122" y1="0.8" x2="123.2" y2="4.5" style="fill: none;stroke: #000;stroke-miterlimit: 10;stroke-width: 0.343147px"/>
              <path d="M121.3,1c-.2-.4,0-.8.5-1a.7.7,0,0,1,.9.5.7.7,0,0,1-.5,1A.7.7,0,0,1,121.3,1Z"/>
              <path d="M122.7,4.7a.5.5,0,0,0,.7.3.4.4,0,0,0,.3-.6c-.1-.3-.4-.5-.6-.4A.7.7,0,0,0,122.7,4.7Z"/>
            </g>
          </g>
          <g>
            <g>
              <line x1="147.5" y1="22.8" x2="152.1" y2="21.2" style="fill: none;stroke: #000;stroke-miterlimit: 10;stroke-width: 0.205888px"/>
              <path d="M147.6,23.3c-.2.1-.5-.1-.6-.3a.5.5,0,0,1,.3-.6.4.4,0,0,1,.6.3A.4.4,0,0,1,147.6,23.3Z"/>
              <path d="M152.2,21.5c.2,0,.3-.2.2-.4s-.2-.2-.4-.2a.8.8,0,0,0-.2.4C151.9,21.5,152.1,21.6,152.2,21.5Z"/>
            </g>
            <g>
              <line x1="140.9" y1="22.2" x2="147.5" y2="22.8" style="fill: none;stroke: #000;stroke-miterlimit: 10;stroke-width: 0.205888px"/>
              <path d="M140.8,22.7c-.2,0-.4-.3-.4-.5s.3-.5.5-.4.5.2.4.5A.5.5,0,0,1,140.8,22.7Z"/>
              <path d="M147.4,23.1a.3.3,0,0,0,.4-.2c0-.2-.1-.4-.3-.4a.3.3,0,0,0-.3.3C147.1,23,147.3,23.1,147.4,23.1Z"/>
            </g>
            <g>
              <line x1="138.1" y1="30.5" x2="140.9" y2="22.2" style="fill: none;stroke: #000;stroke-miterlimit: 10;stroke-width: 0.205888px"/>
              <path d="M138.6,30.6a.4.4,0,0,1-.6.3.5.5,0,1,1,.3-.9C138.5,30.1,138.7,30.4,138.6,30.6Z"/>
              <path d="M141.2,22.3a.8.8,0,0,0-.2-.4c-.2,0-.4.1-.4.2s0,.4.2.4S141.1,22.5,141.2,22.3Z"/>
            </g>
            <g>
              <line x1="127.7" y1="27.4" x2="138.1" y2="30.5" style="fill: none;stroke: #000;stroke-miterlimit: 10;stroke-width: 0.205888px"/>
              <path d="M127.6,27.9a.4.4,0,0,1-.3-.6.4.4,0,0,1,.5-.3.4.4,0,0,1,.3.6A.4.4,0,0,1,127.6,27.9Z"/>
              <path d="M138.1,30.8a.3.3,0,0,0,.3-.3c.1-.1,0-.3-.2-.3s-.3,0-.4.2A.5.5,0,0,0,138.1,30.8Z"/>
            </g>
            <g>
              <line x1="123.2" y1="21.9" x2="127.7" y2="27.4" style="fill: none;stroke: #000;stroke-miterlimit: 10;stroke-width: 0.205888px"/>
              <path d="M122.9,22.2c-.2-.2-.2-.5,0-.6a.5.5,0,0,1,.7.1c.2.2.1.4-.1.6A.4.4,0,0,1,122.9,22.2Z"/>
              <path d="M127.5,27.6a.2.2,0,0,0,.4.1.3.3,0,0,0,0-.4.2.2,0,0,0-.4-.1C127.4,27.3,127.3,27.5,127.5,27.6Z"/>
            </g>
            <g>
              <line x1="116" y1="24.3" x2="123.2" y2="21.9" style="fill: none;stroke: #000;stroke-miterlimit: 10;stroke-width: 0.205888px"/>
              <path d="M116.1,24.7a.4.4,0,0,1-.6-.3.7.7,0,0,1,.3-.6c.3,0,.6.1.6.3A.4.4,0,0,1,116.1,24.7Z"/>
              <path d="M123.3,22.2c.2,0,.3-.2.2-.3s-.2-.3-.4-.2-.2.2-.2.3S123.2,22.3,123.3,22.2Z"/>
            </g>
            <g>
              <line x1="108.5" y1="26.6" x2="116" y2="24.3" style="fill: none;stroke: #000;stroke-miterlimit: 10;stroke-width: 0.205888px"/>
              <path d="M108.6,27a.3.3,0,0,1-.5-.3.4.4,0,0,1,.3-.6c.2,0,.5.1.5.3S108.9,27,108.6,27Z"/>
              <path d="M116.1,24.6a.5.5,0,0,0,.2-.4c-.1-.2-.2-.3-.4-.2s-.3.2-.2.4S115.9,24.6,116.1,24.6Z"/>
            </g>
            <g>
              <line x1="100.1" y1="22.5" x2="108.5" y2="26.6" style="fill: none;stroke: #000;stroke-miterlimit: 10;stroke-width: 0.205888px"/>
              <path d="M99.9,22.9a.5.5,0,0,1-.2-.6.4.4,0,0,1,.6-.2.4.4,0,0,1,.3.6A.6.6,0,0,1,99.9,22.9Z"/>
              <path d="M108.4,26.9a.4.4,0,0,0,.4-.2c.1-.1,0-.3-.2-.4s-.3,0-.4.1A.4.4,0,0,0,108.4,26.9Z"/>
            </g>
            <g>
              <line x1="106" y1="15.6" x2="100.1" y2="22.5" style="fill: none;stroke: #000;stroke-miterlimit: 10;stroke-width: 0.205888px"/>
              <path d="M105.6,15.3a.6.6,0,0,1,.7-.1c.1.2.2.5,0,.7a.5.5,0,0,1-.6.1A.5.5,0,0,1,105.6,15.3Z"/>
              <path d="M99.9,22.3a.3.3,0,0,0,0,.4.4.4,0,0,0,.5,0c.1-.1.1-.3-.1-.5S100,22.2,99.9,22.3Z"/>
            </g>
            <g>
              <line x1="100.3" y1="14.3" x2="106" y2="15.6" style="fill: none;stroke: #000;stroke-miterlimit: 10;stroke-width: 0.205888px"/>
              <path d="M100.2,14.8c-.2-.1-.4-.4-.3-.6s.3-.4.5-.4a.6.6,0,0,1,.4.6A.5.5,0,0,1,100.2,14.8Z"/>
              <path d="M105.9,15.9l.4-.2c0-.2-.1-.4-.3-.4l-.3.2C105.6,15.7,105.7,15.9,105.9,15.9Z"/>
            </g>
            <g>
              <line x1="110.4" y1="13.1" x2="100.3" y2="14.3" style="fill: none;stroke: #000;stroke-miterlimit: 10;stroke-width: 0.205888px"/>
              <path d="M110.3,12.7c.3,0,.5.1.5.4s-.1.5-.4.5a.5.5,0,0,1-.5-.4A.5.5,0,0,1,110.3,12.7Z"/>
              <path d="M100.3,14a.3.3,0,0,0-.3.3c0,.2.2.3.4.3s.3-.2.2-.3A.3.3,0,0,0,100.3,14Z"/>
            </g>
            <g>
              <line x1="112.7" y1="9" x2="110.4" y2="13.1" style="fill: none;stroke: #000;stroke-miterlimit: 10;stroke-width: 0.205888px"/>
              <path d="M112.2,8.8c.2-.3.4-.4.7-.2a.5.5,0,0,1,.2.6.6.6,0,0,1-.7.2A.5.5,0,0,1,112.2,8.8Z"/>
              <path d="M110.1,13c-.1.1,0,.3.1.4a.4.4,0,0,0,.5-.1c0-.2,0-.3-.2-.4A.2.2,0,0,0,110.1,13Z"/>
            </g>
            <g>
              <line x1="14" y1="58.2" x2="0.3" y2="49.7" style="fill: none;stroke: #000;stroke-miterlimit: 10;stroke-width: 0.205888px"/>
              <path d="M14.2,57.8a.5.5,0,0,1,.2.7.5.5,0,0,1-.7.1c-.2-.1-.2-.4-.1-.6A.5.5,0,0,1,14.2,57.8Z"/>
              <path d="M.5,49.4a.4.4,0,0,0-.5.1c0,.2,0,.4.1.4s.4.1.5-.1S.6,49.5.5,49.4Z"/>
            </g>
            <g>
              <line x1="22.4" y1="62.8" x2="14" y2="58.2" style="fill: none;stroke: #000;stroke-miterlimit: 10;stroke-width: 0.205888px"/>
              <path d="M22.6,62.4a.5.5,0,0,1,.2.6.6.6,0,0,1-.7.2.5.5,0,0,1-.2-.6C22.1,62.3,22.4,62.2,22.6,62.4Z"/>
              <path d="M14.1,58a.2.2,0,0,0-.4.1c-.1.1,0,.3.1.4a.4.4,0,0,0,.5-.1C14.3,58.2,14.3,58,14.1,58Z"/>
            </g>
            <g>
              <line x1="29.8" y1="49" x2="22.4" y2="62.8" style="fill: none;stroke: #000;stroke-miterlimit: 10;stroke-width: 0.205888px"/>
              <path d="M29.4,48.8a.4.4,0,0,1,.8.4c-.1.3-.4.4-.6.2A.4.4,0,0,1,29.4,48.8Z"/>
              <path d="M22.1,62.6c-.1.2,0,.4.1.4s.3.1.4-.1a.2.2,0,0,0-.1-.4C22.4,62.4,22.2,62.5,22.1,62.6Z"/>
            </g>
            <g>
              <line x1="38.1" y1="53.3" x2="29.8" y2="49" style="fill: none;stroke: #000;stroke-miterlimit: 10;stroke-width: 0.205888px"/>
              <path d="M38.4,52.9a.5.5,0,0,1,.2.6.6.6,0,0,1-.7.2.5.5,0,0,1-.2-.6A.4.4,0,0,1,38.4,52.9Z"/>
              <path d="M29.9,48.7a.4.4,0,0,0-.4.2c-.1.1,0,.3.2.4s.3,0,.4-.1S30.1,48.8,29.9,48.7Z"/>
            </g>
            <g>
              <line x1="46" y1="54.1" x2="38.1" y2="53.3" style="fill: none;stroke: #000;stroke-miterlimit: 10;stroke-width: 0.205888px"/>
              <path d="M46,53.7a.5.5,0,0,1,.5.5.5.5,0,0,1-.6.4.5.5,0,0,1-.4-.5A.5.5,0,0,1,46,53.7Z"/>
              <path d="M38.2,53a.5.5,0,0,0-.4.2c0,.2.1.4.3.4s.3-.1.4-.3A.3.3,0,0,0,38.2,53Z"/>
            </g>
            <g>
              <line x1="54.3" y1="43.7" x2="46" y2="54.1" style="fill: none;stroke: #000;stroke-miterlimit: 10;stroke-width: 0.205888px"/>
              <path d="M53.9,43.4a.5.5,0,0,1,.7-.1.6.6,0,0,1,.1.7.5.5,0,0,1-.7,0C53.8,43.9,53.8,43.6,53.9,43.4Z"/>
              <path d="M45.7,54c-.1.1,0,.3.1.4a.2.2,0,0,0,.4-.1.3.3,0,0,0,0-.4C46,53.8,45.9,53.8,45.7,54Z"/>
            </g>
            <g>
              <line x1="62.1" y1="45.7" x2="54.3" y2="43.7" style="fill: none;stroke: #000;stroke-miterlimit: 10;stroke-width: 0.205888px"/>
              <path d="M62.2,45.2a.6.6,0,0,1,.4.6.4.4,0,0,1-.6.3.4.4,0,0,1-.3-.5C61.7,45.3,62,45.2,62.2,45.2Z"/>
              <path d="M54.4,43.4c-.2-.1-.4,0-.4.2a.5.5,0,0,0,.2.4c.2,0,.4-.1.4-.3S54.5,43.4,54.4,43.4Z"/>
            </g>
            <g>
              <line x1="71.7" y1="32.7" x2="62.1" y2="45.7" style="fill: none;stroke: #000;stroke-miterlimit: 10;stroke-width: 0.205888px"/>
              <path d="M71.4,32.4a.4.4,0,0,1,.6-.1.5.5,0,0,1,.1.7c-.1.2-.4.2-.6,0A.4.4,0,0,1,71.4,32.4Z"/>
              <path d="M61.9,45.5a.3.3,0,0,0,0,.4.4.4,0,0,0,.5,0c.1-.2.1-.4-.1-.5S62,45.4,61.9,45.5Z"/>
            </g>
            <g>
              <line x1="85.5" y1="29.3" x2="71.7" y2="32.7" style="fill: none;stroke: #000;stroke-miterlimit: 10;stroke-width: 0.205888px"/>
              <path d="M85.4,28.9a.4.4,0,0,1,.6.3.6.6,0,0,1-.4.6c-.2,0-.5-.1-.5-.4A.4.4,0,0,1,85.4,28.9Z"/>
              <path d="M71.7,32.4a.3.3,0,0,0-.3.3c.1.2.2.3.4.3s.3-.2.2-.4S71.8,32.3,71.7,32.4Z"/>
            </g>
            <g>
              <line x1="98.5" y1="35.3" x2="85.5" y2="29.3" style="fill: none;stroke: #000;stroke-miterlimit: 10;stroke-width: 0.205888px"/>
              <path d="M98.7,34.9a.4.4,0,0,1,.2.6.4.4,0,0,1-.8-.4C98.2,34.9,98.4,34.7,98.7,34.9Z"/>
              <path d="M85.7,29c-.2,0-.4,0-.5.2a.4.4,0,0,0,.2.4c.2.1.3,0,.4-.2S85.8,29.1,85.7,29Z"/>
            </g>
            <g>
              <line x1="108.5" y1="26.6" x2="98.5" y2="35.3" style="fill: none;stroke: #000;stroke-miterlimit: 10;stroke-width: 0.205888px"/>
              <path d="M108.2,26.2a.6.6,0,0,1,.7.1c.1.2.1.5-.1.6a.5.5,0,0,1-.7,0A.6.6,0,0,1,108.2,26.2Z"/>
              <path d="M98.3,35c-.1.2-.2.4,0,.5a.3.3,0,0,0,.4-.4A.2.2,0,0,0,98.3,35Z"/>
            </g>
            <g>
              <line x1="119.1" y1="31.5" x2="108.5" y2="26.6" style="fill: none;stroke: #000;stroke-miterlimit: 10;stroke-width: 0.205888px"/>
              <path d="M119.3,31.1a.4.4,0,0,1,.2.6.4.4,0,1,1-.8-.4C118.8,31.1,119.1,30.9,119.3,31.1Z"/>
              <path d="M108.6,26.3c-.1-.1-.3,0-.4.2s0,.3.2.4a.4.4,0,0,0,.4-.2C108.9,26.6,108.8,26.4,108.6,26.3Z"/>
            </g>
            <g>
              <line x1="121" y1="28.6" x2="119.1" y2="31.5" style="fill: none;stroke: #000;stroke-miterlimit: 10;stroke-width: 0.205888px"/>
              <path d="M120.7,28.3c.1-.2.4-.2.6-.1a.4.4,0,0,1,.1.6.4.4,0,0,1-.6.2A.5.5,0,0,1,120.7,28.3Z"/>
              <path d="M118.8,31.3c-.1.1,0,.3.1.4s.3.1.4,0a.4.4,0,0,0,0-.5A.4.4,0,0,0,118.8,31.3Z"/>
            </g>
            <g>
              <line x1="128.9" y1="31.7" x2="121" y2="28.6" style="fill: none;stroke: #000;stroke-miterlimit: 10;stroke-width: 0.205888px"/>
              <path d="M129.1,31.3a.6.6,0,0,1,.3.6.6.6,0,0,1-.7.2.4.4,0,0,1-.2-.6A.5.5,0,0,1,129.1,31.3Z"/>
              <path d="M121.2,28.3c-.2-.1-.4,0-.4.2s0,.3.1.4.4,0,.4-.2S121.3,28.4,121.2,28.3Z"/>
            </g>
            <g>
              <line x1="127.7" y1="27.4" x2="128.9" y2="31.7" style="fill: none;stroke: #000;stroke-miterlimit: 10;stroke-width: 0.205888px"/>
              <path d="M127.2,27.6a.5.5,0,0,1,.4-.6.4.4,0,0,1,.5.3.4.4,0,0,1-.3.6C127.6,28,127.3,27.8,127.2,27.6Z"/>
              <path d="M128.6,31.8c.1.2.2.3.4.2s.3-.2.2-.4-.2-.2-.4-.2A.5.5,0,0,0,128.6,31.8Z"/>
            </g>
            <g>
              <line x1="133.9" y1="24.2" x2="127.7" y2="27.4" style="fill: none;stroke: #000;stroke-miterlimit: 10;stroke-width: 0.205888px"/>
              <path d="M133.7,23.8a.4.4,0,0,1,.6.1.6.6,0,0,1-.2.7.5.5,0,0,1-.6-.2C133.3,24.2,133.4,23.9,133.7,23.8Z"/>
              <path d="M127.6,27.2c-.2.1-.3.2-.2.4s.3.2.4.1.2-.2.2-.4S127.7,27.1,127.6,27.2Z"/>
            </g>
            <g>
              <line x1="133.8" y1="29.2" x2="133.9" y2="24.2" style="fill: none;stroke: #000;stroke-miterlimit: 10;stroke-width: 0.205888px"/>
              <path d="M134.3,29.2a.5.5,0,0,1-.5.5.4.4,0,0,1-.4-.5c0-.2.2-.5.4-.5S134.3,29,134.3,29.2Z"/>
              <path d="M134.2,24.2a.3.3,0,0,0-.6,0,.3.3,0,0,0,.3.3A.5.5,0,0,0,134.2,24.2Z"/>
            </g>
            <g>
              <line x1="140.9" y1="22.2" x2="133.8" y2="29.2" style="fill: none;stroke: #000;stroke-miterlimit: 10;stroke-width: 0.205888px"/>
              <path d="M140.5,21.9a.5.5,0,0,1,.7.7h-.7A.9.9,0,0,1,140.5,21.9Z"/>
              <path d="M133.6,29a.3.3,0,0,0,0,.4.3.3,0,1,0,.4-.4A.3.3,0,0,0,133.6,29Z"/>
            </g>
            <g>
              <line x1="145.4" y1="26.7" x2="140.9" y2="22.2" style="fill: none;stroke: #000;stroke-miterlimit: 10;stroke-width: 0.205888px"/>
              <path d="M145.7,26.4a.4.4,0,0,1,0,.6.5.5,0,0,1-.7,0,.6.6,0,0,1,0-.6A.5.5,0,0,1,145.7,26.4Z"/>
              <path d="M141.1,22a.4.4,0,0,0-.5,0,.3.3,0,0,0,0,.4c.2.2.4.2.5,0A.3.3,0,0,0,141.1,22Z"/>
            </g>
            <g>
              <line x1="147.5" y1="22.8" x2="145.4" y2="26.7" style="fill: none;stroke: #000;stroke-miterlimit: 10;stroke-width: 0.205888px"/>
              <path d="M147.1,22.6a.5.5,0,0,1,.6-.2.6.6,0,0,1,.2.7.5.5,0,0,1-.7.1A.4.4,0,0,1,147.1,22.6Z"/>
              <path d="M145.1,26.6c-.1.1,0,.3.1.4s.4,0,.4-.2a.2.2,0,0,0-.1-.4C145.4,26.3,145.2,26.4,145.1,26.6Z"/>
            </g>
            <g>
              <line x1="127.9" y1="16.9" x2="130.6" y2="11.6" style="fill: none;stroke: #000;stroke-miterlimit: 10;stroke-width: 0.205888px"/>
              <path d="M128.3,17.2a.5.5,0,0,1-.6.2c-.3-.2-.4-.4-.2-.7a.5.5,0,0,1,.6-.2A.6.6,0,0,1,128.3,17.2Z"/>
              <path d="M130.8,11.7a.2.2,0,0,0-.1-.4c-.1-.1-.3,0-.4.2s0,.3.1.4S130.8,11.9,130.8,11.7Z"/>
            </g>
            <g>
              <line x1="123" y1="15.8" x2="127.9" y2="16.9" style="fill: none;stroke: #000;stroke-miterlimit: 10;stroke-width: 0.205888px"/>
              <path d="M122.9,16.3a.5.5,0,0,1-.4-.6.5.5,0,0,1,.6-.3.4.4,0,0,1,.3.5C123.4,16.2,123.1,16.3,122.9,16.3Z"/>
              <path d="M127.8,17.2c.2.1.3,0,.4-.2s-.1-.3-.3-.4a.3.3,0,0,0-.3.3C127.5,17,127.6,17.2,127.8,17.2Z"/>
            </g>
            <g>
              <line x1="123.2" y1="21.9" x2="123" y2="15.8" style="fill: none;stroke: #000;stroke-miterlimit: 10;stroke-width: 0.205888px"/>
              <path d="M123.7,21.9a.5.5,0,1,1-.5-.4A.5.5,0,0,1,123.7,21.9Z"/>
              <path d="M123.3,15.8a.3.3,0,1,0-.6,0,.3.3,0,0,0,.6,0Z"/>
            </g>
            <g>
              <line x1="121" y1="28.6" x2="123.2" y2="21.9" style="fill: none;stroke: #000;stroke-miterlimit: 10;stroke-width: 0.205888px"/>
              <path d="M121.5,28.7a.4.4,0,0,1-.6.3.5.5,0,0,1-.3-.6.6.6,0,0,1,.6-.3C121.4,28.2,121.6,28.5,121.5,28.7Z"/>
              <path d="M123.5,22c.1-.1,0-.3-.2-.3s-.3,0-.4.1.1.4.2.4S123.5,22.2,123.5,22Z"/>
            </g>
            <g>
              <line x1="108.5" y1="26.6" x2="121" y2="28.6" style="fill: none;stroke: #000;stroke-miterlimit: 10;stroke-width: 0.205888px"/>
              <path d="M108.4,27a.5.5,0,0,1-.4-.5.5.5,0,1,1,1,.2A.5.5,0,0,1,108.4,27Z"/>
              <path d="M121,28.9c.2,0,.3-.1.4-.3a.3.3,0,0,0-.3-.3l-.4.2C120.7,28.7,120.8,28.9,121,28.9Z"/>
            </g>
            <g>
              <line x1="115.8" y1="19.2" x2="108.5" y2="26.6" style="fill: none;stroke: #000;stroke-miterlimit: 10;stroke-width: 0.205888px"/>
              <path d="M115.5,18.9a.5.5,0,0,1,.7,0,.9.9,0,0,1,0,.7h-.7A.5.5,0,0,1,115.5,18.9Z"/>
              <path d="M108.3,26.4a.3.3,0,0,0,0,.4h.4a.3.3,0,0,0,0-.4A.2.2,0,0,0,108.3,26.4Z"/>
            </g>
            <g>
              <line x1="108.8" y1="22.4" x2="115.8" y2="19.2" style="fill: none;stroke: #000;stroke-miterlimit: 10;stroke-width: 0.205888px"/>
              <path d="M109,22.8a.5.5,0,0,1-.7-.2.4.4,0,0,1,.3-.6.5.5,0,0,1,.6.2A.4.4,0,0,1,109,22.8Z"/>
              <path d="M116,19.5c.1-.1.2-.2.1-.4s-.2-.2-.4-.2-.2.3-.2.5A.4.4,0,0,0,116,19.5Z"/>
            </g>
            <g>
              <line x1="100.1" y1="22.5" x2="108.8" y2="22.4" style="fill: none;stroke: #000;stroke-miterlimit: 10;stroke-width: 0.205888px"/>
              <path d="M100.1,22.9a.4.4,0,0,1-.4-.4.5.5,0,0,1,.4-.5.5.5,0,0,1,.5.5A.5.5,0,0,1,100.1,22.9Z"/>
              <path d="M108.8,22.7a.3.3,0,0,0,.3-.3.5.5,0,0,0-.3-.3.3.3,0,0,0-.3.3A.3.3,0,0,0,108.8,22.7Z"/>
            </g>
            <g>
              <line x1="98.9" y1="30" x2="100.1" y2="22.5" style="fill: none;stroke: #000;stroke-miterlimit: 10;stroke-width: 0.205888px"/>
              <path d="M99.4,30.1a.7.7,0,0,1-.6.4.5.5,0,0,1-.3-.6.3.3,0,0,1,.5-.3A.5.5,0,0,1,99.4,30.1Z"/>
              <path d="M100.4,22.5c.1-.1,0-.3-.2-.3s-.3.1-.4.2.1.4.3.4A.3.3,0,0,0,100.4,22.5Z"/>
            </g>
            <g>
              <line x1="108.5" y1="26.6" x2="98.9" y2="30" style="fill: none;stroke: #000;stroke-miterlimit: 10;stroke-width: 0.205888px"/>
              <path d="M108.3,26.1c.3,0,.6.1.6.3a.4.4,0,0,1-.2.6c-.3.1-.6,0-.6-.3A.5.5,0,0,1,108.3,26.1Z"/>
              <path d="M98.8,29.7a.4.4,0,0,0-.2.4c.1.2.3.3.4.2s.3-.2.2-.4S99,29.7,98.8,29.7Z"/>
            </g>
            <g>
              <line x1="108.8" y1="22.4" x2="108.5" y2="26.6" style="fill: none;stroke: #000;stroke-miterlimit: 10;stroke-width: 0.205888px"/>
              <path d="M108.3,22.4c0-.3.2-.5.5-.4s.4.2.4.5a.5.5,0,0,1-.5.4C108.5,22.9,108.3,22.6,108.3,22.4Z"/>
              <path d="M108.2,26.6a.3.3,0,0,0,.3.3.3.3,0,1,0-.3-.3Z"/>
            </g>
            <g>
              <line x1="109.4" y1="17.8" x2="108.8" y2="22.4" style="fill: none;stroke: #000;stroke-miterlimit: 10;stroke-width: 0.205888px"/>
              <path d="M108.9,17.8c.1-.3.3-.5.6-.4a.5.5,0,0,1,.4.5.5.5,0,0,1-.6.4C109.1,18.3,108.9,18,108.9,17.8Z"/>
              <path d="M108.5,22.4c-.1.2.1.3.2.3a.3.3,0,0,0,.4-.2c0-.2-.1-.4-.3-.4A.3.3,0,0,0,108.5,22.4Z"/>
            </g>
            <g>
              <line x1="112.5" y1="34.2" x2="104.8" y2="35.6" style="fill: none;stroke: #000;stroke-miterlimit: 10;stroke-width: 0.205888px"/>
              <path d="M112.4,33.8a.5.5,0,0,1,.6.3.5.5,0,0,1-.4.6c-.2,0-.5-.1-.5-.4A.3.3,0,0,1,112.4,33.8Z"/>
              <path d="M104.7,35.3c-.1.1-.3.2-.2.4s.2.3.3.2a.3.3,0,0,0,.3-.3C105.1,35.4,104.9,35.3,104.7,35.3Z"/>
            </g>
            <g>
              <line x1="115.4" y1="33.9" x2="112.5" y2="34.2" style="fill: none;stroke: #000;stroke-miterlimit: 10;stroke-width: 0.205888px"/>
              <path d="M115.4,33.5c.2-.1.5.1.5.4s-.2.5-.4.5a.5.5,0,0,1-.5-.4C114.9,33.7,115.1,33.5,115.4,33.5Z"/>
              <path d="M112.5,33.9a.3.3,0,0,0-.3.3c0,.2.2.3.4.3s.3-.1.2-.3A.3.3,0,0,0,112.5,33.9Z"/>
            </g>
            <g>
              <line x1="124.9" y1="34.7" x2="115.4" y2="33.9" style="fill: none;stroke: #000;stroke-miterlimit: 10;stroke-width: 0.205888px"/>
              <path d="M124.9,34.3c.3,0,.5.2.4.5a.5.5,0,0,1-.5.4c-.2,0-.4-.3-.4-.5S124.7,34.2,124.9,34.3Z"/>
              <path d="M115.5,33.6c-.2,0-.4.1-.4.3a.3.3,0,0,0,.3.3c.2,0,.3-.1.3-.2A.3.3,0,0,0,115.5,33.6Z"/>
            </g>
            <g>
              <line x1="124.4" y1="32.4" x2="124.9" y2="34.7" style="fill: none;stroke: #000;stroke-miterlimit: 10;stroke-width: 0.205888px"/>
              <path d="M124,32.5a.4.4,0,0,1,.3-.5.5.5,0,0,1,.6.3.5.5,0,0,1-.4.6C124.3,32.9,124,32.8,124,32.5Z"/>
              <path d="M124.6,34.8c0,.2.2.3.3.2a.3.3,0,0,0,.3-.3c0-.2-.2-.3-.4-.3S124.5,34.6,124.6,34.8Z"/>
            </g>
            <g>
              <line x1="128.9" y1="31.7" x2="124.4" y2="32.4" style="fill: none;stroke: #000;stroke-miterlimit: 10;stroke-width: 0.205888px"/>
              <path d="M128.8,31.2a.5.5,0,1,1,.2,1,.5.5,0,0,1-.5-.4A.5.5,0,0,1,128.8,31.2Z"/>
              <path d="M124.4,32.1c-.2,0-.3.2-.3.4a.3.3,0,0,0,.4.2c.1,0,.2-.2.2-.3A.3.3,0,0,0,124.4,32.1Z"/>
            </g>
            <g>
              <line x1="133" y1="34.5" x2="128.9" y2="31.7" style="fill: none;stroke: #000;stroke-miterlimit: 10;stroke-width: 0.205888px"/>
              <path d="M133.3,34.2c.2.1.2.4.1.6a.5.5,0,0,1-.7.1c-.2-.1-.2-.4-.1-.6A.5.5,0,0,1,133.3,34.2Z"/>
              <path d="M129.1,31.5a.3.3,0,0,0-.4,0,.4.4,0,0,0,0,.5.4.4,0,0,0,.5-.1C129.3,31.7,129.2,31.5,129.1,31.5Z"/>
            </g>
            <g>
              <line x1="119.5" y1="31.3" x2="133" y2="34.5" style="fill: none;stroke: #000;stroke-miterlimit: 10;stroke-width: 0.205888px"/>
              <path d="M119.3,31.7a.4.4,0,0,1-.3-.5.5.5,0,0,1,.6-.4.5.5,0,1,1-.3.9Z"/>
              <path d="M132.9,34.8c.2.1.4,0,.4-.2a.5.5,0,0,0-.2-.4c-.2,0-.4.1-.4.3S132.8,34.8,132.9,34.8Z"/>
            </g>
            <g>
              <line x1="112.2" y1="36.1" x2="119.5" y2="31.3" style="fill: none;stroke: #000;stroke-miterlimit: 10;stroke-width: 0.205888px"/>
              <path d="M112.5,36.4a.5.5,0,0,1-.7-.1.4.4,0,0,1,.2-.6.4.4,0,0,1,.6.1C112.7,36,112.7,36.3,112.5,36.4Z"/>
              <path d="M119.6,31.5a.2.2,0,0,0,.1-.4c-.1-.1-.3-.2-.4-.1a.3.3,0,1,0,.3.5Z"/>
            </g>
            <g>
              <line x1="113.1" y1="31.1" x2="112.2" y2="36.1" style="fill: none;stroke: #000;stroke-miterlimit: 10;stroke-width: 0.205888px"/>
              <path d="M112.6,31c0-.2.3-.4.5-.4s.5.3.4.6-.3.4-.5.4A.5.5,0,0,1,112.6,31Z"/>
              <path d="M111.9,36c0,.2.1.3.3.4a.3.3,0,0,0,.3-.3.5.5,0,0,0-.2-.4C112.1,35.7,111.9,35.8,111.9,36Z"/>
            </g>
            <g>
              <line x1="104.8" y1="35.6" x2="113.1" y2="31.1" style="fill: none;stroke: #000;stroke-miterlimit: 10;stroke-width: 0.205888px"/>
              <path d="M105,36a.4.4,0,0,1-.6-.1.4.4,0,0,1,.2-.7.4.4,0,0,1,.4.8Z"/>
              <path d="M113.2,31.4c.2-.1.2-.3.1-.5s-.2-.2-.4-.1-.2.3-.1.4A.4.4,0,0,0,113.2,31.4Z"/>
            </g>
            <g>
              <line x1="136.3" y1="16.3" x2="143.1" y2="16.2" style="fill: none;stroke: #000;stroke-miterlimit: 10;stroke-width: 0.205888px"/>
              <path d="M136.3,16.8a.5.5,0,0,1-.4-.5.4.4,0,0,1,.4-.4.5.5,0,0,1,.5.4A.5.5,0,0,1,136.3,16.8Z"/>
              <path d="M143.1,16.5a.3.3,0,0,0,.3-.3.3.3,0,0,0-.3-.3.3.3,0,0,0,0,.6Z"/>
            </g>
            <g>
              <line x1="139.4" y1="19.7" x2="136.3" y2="16.3" style="fill: none;stroke: #000;stroke-miterlimit: 10;stroke-width: 0.205888px"/>
              <path d="M139.8,19.4a.6.6,0,0,1-.1.7c-.2.1-.5.1-.6-.1s-.2-.5,0-.6A.5.5,0,0,1,139.8,19.4Z"/>
              <path d="M136.6,16.1a.4.4,0,0,0-.5,0,.3.3,0,0,0,0,.4.2.2,0,0,0,.4.1C136.7,16.4,136.7,16.2,136.6,16.1Z"/>
            </g>
            <g>
              <line x1="133.9" y1="18.5" x2="139.4" y2="19.7" style="fill: none;stroke: #000;stroke-miterlimit: 10;stroke-width: 0.205888px"/>
              <path d="M133.8,18.9c-.3,0-.4-.3-.4-.5a.5.5,0,0,1,.6-.4.5.5,0,0,1,.3.6A.4.4,0,0,1,133.8,18.9Z"/>
              <path d="M139.3,20c.2.1.4,0,.4-.2s-.1-.3-.2-.4-.4.1-.4.2S139.2,20,139.3,20Z"/>
            </g>
            <g>
              <line x1="136.2" y1="22.1" x2="133.9" y2="18.5" style="fill: none;stroke: #000;stroke-miterlimit: 10;stroke-width: 0.205888px"/>
              <path d="M136.6,21.8a.5.5,0,0,1-.1.7.5.5,0,0,1-.7-.2.5.5,0,0,1,.2-.6C136.2,21.6,136.5,21.6,136.6,21.8Z"/>
              <path d="M134.1,18.3c0-.1-.2-.2-.4-.1a.4.4,0,0,0-.1.5h.5A.4.4,0,0,0,134.1,18.3Z"/>
            </g>
            <g>
              <line x1="129.4" y1="22.5" x2="136.2" y2="22.1" style="fill: none;stroke: #000;stroke-miterlimit: 10;stroke-width: 0.205888px"/>
              <path d="M129.4,23a.5.5,0,0,1-.5-.5.7.7,0,0,1,.4-.5.5.5,0,0,1,.5.5C129.8,22.7,129.7,23,129.4,23Z"/>
              <path d="M136.2,22.4a.3.3,0,0,0,.3-.3.3.3,0,0,0-.6,0A.3.3,0,0,0,136.2,22.4Z"/>
            </g>
            <g>
              <line x1="110.4" y1="13.1" x2="108.8" y2="7.2" style="fill: none;stroke: #000;stroke-miterlimit: 10;stroke-width: 0.205888px"/>
              <path d="M110.8,13a.4.4,0,0,1-.3.6c-.2.1-.5-.1-.6-.3a.5.5,0,0,1,.4-.6A.4.4,0,0,1,110.8,13Z"/>
              <path d="M109.1,7.1a.5.5,0,0,0-.4-.2c-.2.1-.3.2-.2.4s.2.3.4.2S109.1,7.3,109.1,7.1Z"/>
            </g>
            <g>
              <line x1="104.3" y1="11.2" x2="110.4" y2="13.1" style="fill: none;stroke: #000;stroke-miterlimit: 10;stroke-width: 0.205888px"/>
              <path d="M104.1,11.6a.6.6,0,0,1-.3-.6.7.7,0,0,1,.6-.3.4.4,0,0,1,.3.6A.4.4,0,0,1,104.1,11.6Z"/>
              <path d="M110.3,13.4c.2.1.3,0,.4-.2s-.1-.3-.2-.3-.4,0-.4.2S110.1,13.4,110.3,13.4Z"/>
            </g>
            <g>
              <line x1="108.8" y1="7.2" x2="104.3" y2="11.2" style="fill: none;stroke: #000;stroke-miterlimit: 10;stroke-width: 0.205888px"/>
              <path d="M108.5,6.9c.2-.2.5-.2.6,0a.5.5,0,0,1,0,.7.6.6,0,0,1-.7-.1C108.3,7.3,108.3,7,108.5,6.9Z"/>
              <path d="M104.1,10.9c-.1.2-.2.4,0,.5h.4a.3.3,0,0,0,0-.4A.2.2,0,0,0,104.1,10.9Z"/>
            </g>
            <g>
              <line x1="113.3" y1="2.5" x2="108.8" y2="7.2" style="fill: none;stroke: #000;stroke-miterlimit: 10;stroke-width: 0.205888px"/>
              <path d="M113,2.1a.9.9,0,0,1,.7,0,.9.9,0,0,1,0,.7.5.5,0,1,1-.7-.7Z"/>
              <path d="M108.6,7a.2.2,0,0,0,0,.4.2.2,0,0,0,.4,0,.3.3,0,0,0,0-.4Z"/>
            </g>
            <g>
              <line x1="117" y1="4.9" x2="113.3" y2="2.5" style="fill: none;stroke: #000;stroke-miterlimit: 10;stroke-width: 0.205888px"/>
              <path d="M117.3,4.5a.6.6,0,0,1,.1.7.6.6,0,0,1-.7.1c-.2-.1-.2-.4-.1-.6S117,4.4,117.3,4.5Z"/>
              <path d="M113.5,2.2c-.1-.1-.3,0-.4.1a.2.2,0,0,0,.1.4.2.2,0,0,0,.4-.1C113.7,2.5,113.6,2.3,113.5,2.2Z"/>
            </g>
            <g>
              <line x1="112.7" y1="9" x2="117" y2="4.9" style="fill: none;stroke: #000;stroke-miterlimit: 10;stroke-width: 0.205888px"/>
              <path d="M113,9.3a.5.5,0,0,1-.7-.7.6.6,0,0,1,.7.1C113.2,8.8,113.2,9.1,113,9.3Z"/>
              <path d="M117.2,5.1a.3.3,0,1,0-.4,0C116.9,5.2,117.1,5.3,117.2,5.1Z"/>
            </g>
            <g>
              <line x1="119.5" y1="8.6" x2="112.7" y2="9" style="fill: none;stroke: #000;stroke-miterlimit: 10;stroke-width: 0.205888px"/>
              <path d="M119.5,8.1a.7.7,0,0,1,.5.4.5.5,0,0,1-.5.5.5.5,0,0,1-.5-.4A.5.5,0,0,1,119.5,8.1Z"/>
              <path d="M112.6,8.7a.3.3,0,0,0-.3.3c.1.2.2.3.4.3L113,9C112.9,8.8,112.8,8.7,112.6,8.7Z"/>
            </g>
            <g>
              <line x1="117.6" y1="11.4" x2="119.5" y2="8.6" style="fill: none;stroke: #000;stroke-miterlimit: 10;stroke-width: 0.205888px"/>
              <path d="M118,11.7a.5.5,0,0,1-.7.1c-.2-.1-.2-.4-.1-.6a.6.6,0,0,1,.7-.2A.6.6,0,0,1,118,11.7Z"/>
              <path d="M119.8,8.7c.1-.1,0-.3-.1-.4a.4.4,0,0,0-.5.1c-.1.1,0,.3.1.4S119.7,8.9,119.8,8.7Z"/>
            </g>
            <g>
              <line x1="105.7" y1="5.5" x2="117.6" y2="11.4" style="fill: none;stroke: #000;stroke-miterlimit: 10;stroke-width: 0.205888px"/>
              <path d="M105.5,5.9a.4.4,0,0,1-.2-.6.6.6,0,0,1,.7-.2.5.5,0,0,1,.2.6A.4.4,0,0,1,105.5,5.9Z"/>
              <path d="M117.5,11.7c.1.1.3,0,.4-.1s0-.4-.2-.4a.2.2,0,0,0-.4.1C117.2,11.4,117.3,11.6,117.5,11.7Z"/>
            </g>
            <g>
              <line x1="104.3" y1="11.2" x2="105.7" y2="5.5" style="fill: none;stroke: #000;stroke-miterlimit: 10;stroke-width: 0.205888px"/>
              <path d="M104.7,11.3a.4.4,0,0,1-.5.3c-.3,0-.4-.3-.4-.5a.6.6,0,0,1,.6-.4A.4.4,0,0,1,104.7,11.3Z"/>
              <path d="M106,5.6c.1-.2,0-.3-.2-.4a.5.5,0,0,0-.4.3.3.3,0,0,0,.3.3C105.8,5.9,106,5.8,106,5.6Z"/>
            </g>
            <g>
              <line x1="90.1" y1="8.8" x2="104.3" y2="11.2" style="fill: none;stroke: #000;stroke-miterlimit: 10;stroke-width: 0.205888px"/>
              <path d="M90,9.3a.5.5,0,0,1-.4-.6c0-.2.3-.4.5-.4s.5.3.4.6S90.2,9.3,90,9.3Z"/>
              <path d="M104.2,11.5c.2,0,.4-.1.4-.3a.3.3,0,0,0-.3-.3c-.1-.1-.3.1-.3.2S104.1,11.5,104.2,11.5Z"/>
            </g>
            <g>
              <line x1="90.4" y1="11.9" x2="90.1" y2="8.8" style="fill: none;stroke: #000;stroke-miterlimit: 10;stroke-width: 0.205888px"/>
              <path d="M90.8,11.8c.1.3-.1.5-.4.6a.5.5,0,0,1-.5-.5.7.7,0,0,1,.4-.5A.5.5,0,0,1,90.8,11.8Z"/>
              <path d="M90.4,8.8c-.1-.2-.2-.3-.4-.3a.5.5,0,0,0-.3.3c.1.2.2.3.4.3A.3.3,0,0,0,90.4,8.8Z"/>
            </g>
            <g>
              <line x1="100.3" y1="14.3" x2="90.4" y2="11.9" style="fill: none;stroke: #000;stroke-miterlimit: 10;stroke-width: 0.205888px"/>
              <path d="M100.4,13.9c.3,0,.4.3.4.5a.5.5,0,0,1-.6.4c-.2-.1-.4-.4-.3-.6A.3.3,0,0,1,100.4,13.9Z"/>
              <path d="M90.4,11.6c-.1,0-.3.1-.3.2s0,.4.2.4l.4-.2C90.7,11.8,90.6,11.6,90.4,11.6Z"/>
            </g>
            <g>
              <line x1="89.8" y1="19.5" x2="100.3" y2="14.3" style="fill: none;stroke: #000;stroke-miterlimit: 10;stroke-width: 0.205888px"/>
              <path d="M90,20a.4.4,0,0,1-.6-.3.4.4,0,1,1,.8-.4C90.4,19.6,90.3,19.8,90,20Z"/>
              <path d="M100.5,14.6c.1-.1.2-.3.1-.4s-.2-.3-.4-.2a.2.2,0,0,0-.1.4C100.1,14.6,100.3,14.7,100.5,14.6Z"/>
            </g>
            <g>
              <line x1="85.5" y1="29.3" x2="89.8" y2="19.5" style="fill: none;stroke: #000;stroke-miterlimit: 10;stroke-width: 0.205888px"/>
              <path d="M86,29.5a.6.6,0,0,1-.7.2.4.4,0,0,1-.2-.6.5.5,0,0,1,.6-.2C85.9,29,86.1,29.3,86,29.5Z"/>
              <path d="M90.1,19.7c.1-.2,0-.4-.1-.4a.4.4,0,0,0-.5.1c0,.2,0,.3.2.4S90,19.8,90.1,19.7Z"/>
            </g>
            <g>
              <line x1="73.9" y1="20" x2="85.5" y2="29.3" style="fill: none;stroke: #000;stroke-miterlimit: 10;stroke-width: 0.205888px"/>
              <path d="M73.6,20.4a.5.5,0,0,1-.1-.7.5.5,0,0,1,.7,0c.2.1.2.4,0,.6A.4.4,0,0,1,73.6,20.4Z"/>
              <path d="M85.3,29.5a.3.3,0,0,0,.5,0,.2.2,0,0,0-.1-.4.3.3,0,0,0-.4.4Z"/>
            </g>
            <g>
              <line x1="65.9" y1="28.8" x2="73.9" y2="20" style="fill: none;stroke: #000;stroke-miterlimit: 10;stroke-width: 0.205888px"/>
              <path d="M66.2,29.1c-.1.2-.4.2-.6.1a.6.6,0,0,1-.1-.7.5.5,0,0,1,.7,0C66.4,28.7,66.4,29,66.2,29.1Z"/>
              <path d="M74.1,20.2a.3.3,0,0,0,0-.4.5.5,0,0,0-.5,0c-.1.1-.1.3.1.5A.2.2,0,0,0,74.1,20.2Z"/>
            </g>
            <g>
              <line x1="52.1" y1="29.5" x2="65.9" y2="28.8" style="fill: none;stroke: #000;stroke-miterlimit: 10;stroke-width: 0.205888px"/>
              <path d="M52.1,29.9a.4.4,0,0,1-.4-.4c-.1-.3.1-.5.4-.5a.5.5,0,0,1,.5.4A.5.5,0,0,1,52.1,29.9Z"/>
              <path d="M65.9,29.1a.3.3,0,0,0,.3-.3.3.3,0,0,0-.6,0A.3.3,0,0,0,65.9,29.1Z"/>
            </g>
            <g>
              <line x1="44.4" y1="26.6" x2="52.1" y2="29.5" style="fill: none;stroke: #000;stroke-miterlimit: 10;stroke-width: 0.205888px"/>
              <path d="M44.2,27.1a.5.5,0,0,1-.2-.6c0-.3.3-.4.6-.3a.5.5,0,0,1-.4.9Z"/>
              <path d="M52,29.8c.2,0,.4-.1.4-.2s0-.4-.2-.4-.3,0-.4.2A.8.8,0,0,0,52,29.8Z"/>
            </g>
            <g>
              <line x1="37.8" y1="30.3" x2="44.4" y2="26.6" style="fill: none;stroke: #000;stroke-miterlimit: 10;stroke-width: 0.205888px"/>
              <path d="M38,30.7a.4.4,0,0,1-.6-.2.4.4,0,0,1,.1-.6.6.6,0,0,1,.7.2A.5.5,0,0,1,38,30.7Z"/>
              <path d="M44.5,26.9a.4.4,0,0,0,.2-.4c-.1-.2-.3-.2-.5-.1s-.2.2-.1.4S44.4,27,44.5,26.9Z"/>
            </g>
            <g>
              <line x1="27.7" y1="28.4" x2="37.8" y2="30.3" style="fill: none;stroke: #000;stroke-miterlimit: 10;stroke-width: 0.205888px"/>
              <path d="M27.6,28.9a.7.7,0,0,1-.4-.6.5.5,0,0,1,.6-.3c.2,0,.4.3.4.5A.5.5,0,0,1,27.6,28.9Z"/>
              <path d="M37.7,30.6a.5.5,0,0,0,.4-.2c0-.2-.1-.4-.3-.4a.3.3,0,0,0-.3.3C37.4,30.4,37.5,30.6,37.7,30.6Z"/>
            </g>
            <g>
              <line x1="97.7" y1="10.1" x2="98.4" y2="6.4" style="fill: none;stroke: #000;stroke-miterlimit: 10;stroke-width: 0.205888px"/>
              <path d="M98.2,10.2a.5.5,0,0,1-.6.3.3.3,0,0,1-.3-.5c0-.3.2-.4.5-.4A.5.5,0,0,1,98.2,10.2Z"/>
              <path d="M98.7,6.5c0-.2-.1-.4-.3-.4a.3.3,0,0,0-.3.3c-.1.1,0,.3.2.3A.5.5,0,0,0,98.7,6.5Z"/>
            </g>
            <g>
              <line x1="100.3" y1="14.3" x2="97.7" y2="10.1" style="fill: none;stroke: #000;stroke-miterlimit: 10;stroke-width: 0.205888px"/>
              <path d="M100.7,14.1a.4.4,0,0,1-.1.6.5.5,0,0,1-.7-.2.5.5,0,0,1,.2-.6A.4.4,0,0,1,100.7,14.1Z"/>
              <path d="M98,9.9c-.1-.1-.3-.2-.4-.1a.2.2,0,0,0-.1.4c0,.2.2.2.4.1S98.1,10.1,98,9.9Z"/>
            </g>
            <g>
              <line x1="73.1" y1="24" x2="73.9" y2="20" style="fill: none;stroke: #000;stroke-miterlimit: 10;stroke-width: 0.205888px"/>
              <path d="M73.5,24.1a.4.4,0,0,1-.5.3c-.3,0-.4-.2-.4-.5a.5.5,0,0,1,.6-.4A.5.5,0,0,1,73.5,24.1Z"/>
              <path d="M74.2,20.1c0-.2-.1-.3-.3-.4a.3.3,0,0,0-.3.3c-.1.1,0,.3.2.3S74.1,20.3,74.2,20.1Z"/>
            </g>
            <g>
              <line x1="85.5" y1="29.3" x2="73.1" y2="24" style="fill: none;stroke: #000;stroke-miterlimit: 10;stroke-width: 0.205888px"/>
              <path d="M85.7,28.9a.5.5,0,0,1,.3.6.6.6,0,0,1-.7.2.4.4,0,0,1-.2-.6A.5.5,0,0,1,85.7,28.9Z"/>
              <path d="M73.2,23.7c-.2-.1-.4,0-.4.2s0,.3.1.4.4,0,.4-.2S73.3,23.8,73.2,23.7Z"/>
            </g>
            <g>
              <line x1="91.6" y1="24.9" x2="85.5" y2="29.3" style="fill: none;stroke: #000;stroke-miterlimit: 10;stroke-width: 0.205888px"/>
              <path d="M91.3,24.5a.5.5,0,0,1,.7.1c.1.2.1.5-.1.6a.5.5,0,0,1-.7-.1C91.1,24.9,91.1,24.6,91.3,24.5Z"/>
              <path d="M85.3,29.1c-.1.1-.1.2,0,.4s.3.2.4.1a.4.4,0,0,0,.1-.5A.4.4,0,0,0,85.3,29.1Z"/>
            </g>
            <g>
              <line x1="89.8" y1="19.5" x2="91.6" y2="24.9" style="fill: none;stroke: #000;stroke-miterlimit: 10;stroke-width: 0.205888px"/>
              <path d="M89.4,19.7a.4.4,0,0,1,.3-.6.4.4,0,0,1,.6.3.7.7,0,0,1-.3.6A.5.5,0,0,1,89.4,19.7Z"/>
              <path d="M91.3,25c0,.1.2.2.4.2l.2-.4c-.1-.2-.2-.3-.4-.2S91.2,24.8,91.3,25Z"/>
            </g>
            <g>
              <line x1="100.1" y1="22.5" x2="89.8" y2="19.5" style="fill: none;stroke: #000;stroke-miterlimit: 10;stroke-width: 0.205888px"/>
              <path d="M100.3,22c.2.1.4.4.3.6a.4.4,0,0,1-.6.3.4.4,0,0,1-.3-.5A.5.5,0,0,1,100.3,22Z"/>
              <path d="M89.9,19.2l-.4.2c0,.2.1.4.2.4s.4,0,.4-.2S90.1,19.3,89.9,19.2Z"/>
            </g>
            <g>
              <line x1="91.6" y1="24.9" x2="100.1" y2="22.5" style="fill: none;stroke: #000;stroke-miterlimit: 10;stroke-width: 0.205888px"/>
              <path d="M91.7,25.3c-.2.1-.5-.1-.6-.3a.5.5,0,0,1,.4-.6.4.4,0,0,1,.5.3A.4.4,0,0,1,91.7,25.3Z"/>
              <path d="M100.2,22.8c.2-.1.3-.2.2-.4s-.2-.3-.3-.2-.3.2-.3.4Z"/>
            </g>
            <g>
              <line x1="98.9" y1="30" x2="91.6" y2="24.9" style="fill: none;stroke: #000;stroke-miterlimit: 10;stroke-width: 0.205888px"/>
              <path d="M99.2,29.6a.6.6,0,0,1,.1.7.5.5,0,1,1-.8-.6A.6.6,0,0,1,99.2,29.6Z"/>
              <path d="M91.8,24.6c-.2-.1-.4-.1-.5.1s0,.3.1.4.3.1.4-.1A.3.3,0,0,0,91.8,24.6Z"/>
            </g>
            <g>
              <line x1="85.5" y1="29.3" x2="98.9" y2="30" style="fill: none;stroke: #000;stroke-miterlimit: 10;stroke-width: 0.205888px"/>
              <path d="M85.5,29.8c-.3,0-.4-.3-.4-.5a.5.5,0,0,1,.5-.5.7.7,0,0,1,.4.5A.5.5,0,0,1,85.5,29.8Z"/>
              <path d="M98.9,30.3a.3.3,0,0,0,.3-.3.3.3,0,1,0-.6,0A.3.3,0,0,0,98.9,30.3Z"/>
            </g>
            <g>
              <line x1="83.4" y1="37.3" x2="85.5" y2="29.3" style="fill: none;stroke: #000;stroke-miterlimit: 10;stroke-width: 0.205888px"/>
              <path d="M83.8,37.4a.3.3,0,0,1-.5.3c-.3,0-.4-.3-.4-.5a.5.5,0,0,1,.6-.4C83.7,36.9,83.9,37.2,83.8,37.4Z"/>
              <path d="M85.8,29.4c.1-.2,0-.4-.2-.4l-.4.2c0,.2.1.4.2.4S85.8,29.5,85.8,29.4Z"/>
            </g>
            <g>
              <line x1="71.7" y1="32.7" x2="83.4" y2="37.3" style="fill: none;stroke: #000;stroke-miterlimit: 10;stroke-width: 0.205888px"/>
              <path d="M71.6,33.1a.4.4,0,0,1-.3-.6c.1-.2.4-.4.6-.3s.4.4.3.6A.4.4,0,0,1,71.6,33.1Z"/>
              <path d="M83.3,37.6a.4.4,0,0,0,.4-.2.5.5,0,0,0-.2-.4c-.2-.1-.4,0-.4.2S83.1,37.5,83.3,37.6Z"/>
            </g>
            <g>
              <line x1="77.7" y1="40.1" x2="71.7" y2="32.7" style="fill: none;stroke: #000;stroke-miterlimit: 10;stroke-width: 0.205888px"/>
              <path d="M78.1,39.8c.1.2.1.5-.1.6s-.5.2-.6,0a.5.5,0,0,1,0-.7A.6.6,0,0,1,78.1,39.8Z"/>
              <path d="M72,32.5c-.1-.2-.3-.2-.5-.1a.4.4,0,0,0,0,.5.3.3,0,0,0,.4,0A.2.2,0,0,0,72,32.5Z"/>
            </g>
            <g>
              <line x1="65.3" y1="41.2" x2="77.7" y2="40.1" style="fill: none;stroke: #000;stroke-miterlimit: 10;stroke-width: 0.205888px"/>
              <path d="M65.3,41.6c-.2.1-.5-.1-.5-.4s.2-.5.4-.5a.5.5,0,0,1,.5.4C65.8,41.4,65.6,41.6,65.3,41.6Z"/>
              <path d="M77.7,40.4a.3.3,0,0,0,.3-.3.3.3,0,0,0-.6,0A.3.3,0,0,0,77.7,40.4Z"/>
            </g>
            <g>
              <line x1="59.2" y1="44.9" x2="65.3" y2="41.2" style="fill: none;stroke: #000;stroke-miterlimit: 10;stroke-width: 0.205888px"/>
              <path d="M59.5,45.3a.5.5,0,0,1-.7-.1.5.5,0,0,1,.2-.7.5.5,0,0,1,.6.2C59.7,44.9,59.7,45.2,59.5,45.3Z"/>
              <path d="M65.4,41.4c.2,0,.2-.2.1-.4s-.2-.2-.4-.1-.2.3-.1.4A.2.2,0,0,0,65.4,41.4Z"/>
            </g>
            <g>
              <line x1="52.2" y1="50.9" x2="59.2" y2="44.9" style="fill: none;stroke: #000;stroke-miterlimit: 10;stroke-width: 0.205888px"/>
              <path d="M52.5,51.3a.6.6,0,0,1-.7-.1.4.4,0,0,1,.1-.6c.2-.2.5-.2.6,0A.5.5,0,0,1,52.5,51.3Z"/>
              <path d="M59.4,45.2a.3.3,0,0,0,0-.5.3.3,0,0,0-.4.4A.2.2,0,0,0,59.4,45.2Z"/>
            </g>
            <g>
              <line x1="48.3" y1="51.3" x2="52.2" y2="50.9" style="fill: none;stroke: #000;stroke-miterlimit: 10;stroke-width: 0.205888px"/>
              <path d="M48.3,51.7c-.2.1-.5-.1-.5-.4s.2-.5.4-.5a.5.5,0,0,1,.5.4C48.8,51.5,48.6,51.7,48.3,51.7Z"/>
              <path d="M52.2,51.2a.3.3,0,0,0,.3-.3c0-.2-.2-.3-.4-.3s-.3.2-.2.3A.3.3,0,0,0,52.2,51.2Z"/>
            </g>
            <g>
              <line x1="38.1" y1="53.3" x2="48.3" y2="51.3" style="fill: none;stroke: #000;stroke-miterlimit: 10;stroke-width: 0.205888px"/>
              <path d="M38.2,53.7a.4.4,0,0,1-.5-.3c-.1-.3.1-.5.4-.6s.5.1.5.4S38.5,53.7,38.2,53.7Z"/>
              <path d="M48.3,51.6c.2-.1.3-.2.3-.4s-.2-.3-.4-.2-.3.2-.2.3A.3.3,0,0,0,48.3,51.6Z"/>
            </g>
            <g>
              <line x1="36.4" y1="57.9" x2="38.1" y2="53.3" style="fill: none;stroke: #000;stroke-miterlimit: 10;stroke-width: 0.205888px"/>
              <path d="M36.9,58.1c-.1.2-.4.4-.6.3a.5.5,0,1,1,.3-.9C36.8,57.6,37,57.9,36.9,58.1Z"/>
              <path d="M38.4,53.4c.1-.2,0-.4-.1-.4s-.4,0-.4.2,0,.3.1.4S38.4,53.5,38.4,53.4Z"/>
            </g>
            <g>
              <line x1="29.8" y1="49" x2="36.4" y2="57.9" style="fill: none;stroke: #000;stroke-miterlimit: 10;stroke-width: 0.205888px"/>
              <path d="M29.4,49.3a.5.5,0,0,1,.8-.6.5.5,0,0,1-.8.6Z"/>
              <path d="M36.2,58.1a.3.3,0,0,0,.5-.3c-.1-.2-.3-.2-.5-.1A.3.3,0,0,0,36.2,58.1Z"/>
            </g>
            <g>
              <line x1="12.8" y1="57.5" x2="29.8" y2="49" style="fill: none;stroke: #000;stroke-miterlimit: 10;stroke-width: 0.205888px"/>
              <path d="M13,57.9a.4.4,0,0,1-.4-.8.6.6,0,0,1,.7.2A.4.4,0,0,1,13,57.9Z"/>
              <path d="M29.9,49.3a.3.3,0,1,0-.2-.6.4.4,0,0,0-.2.5C29.6,49.3,29.8,49.4,29.9,49.3Z"/>
            </g>
            <g>
              <line x1="89.3" y1="31" x2="83.4" y2="37.3" style="fill: none;stroke: #000;stroke-miterlimit: 10;stroke-width: 0.205888px"/>
              <path d="M89,30.7c.2-.2.5-.2.6,0a.6.6,0,0,1,.1.7.5.5,0,1,1-.7-.7Z"/>
              <path d="M83.1,37.1a.2.2,0,0,0,.1.4.3.3,0,1,0,.4-.4C83.5,36.9,83.3,36.9,83.1,37.1Z"/>
            </g>
            <g>
              <line x1="92.9" y1="36.2" x2="89.3" y2="31" style="fill: none;stroke: #000;stroke-miterlimit: 10;stroke-width: 0.205888px"/>
              <path d="M93.3,36c.1.2.1.5-.1.6a.5.5,0,0,1-.7-.1.6.6,0,0,1,.1-.7A.5.5,0,0,1,93.3,36Z"/>
              <path d="M89.6,30.9c-.1-.2-.3-.2-.5-.1a.3.3,0,0,0,0,.4.2.2,0,0,0,.4.1C89.6,31.2,89.7,31,89.6,30.9Z"/>
            </g>
            <g>
              <line x1="95.9" y1="34.1" x2="92.9" y2="36.2" style="fill: none;stroke: #000;stroke-miterlimit: 10;stroke-width: 0.205888px"/>
              <path d="M95.6,33.7a.5.5,0,0,1,.6.8c-.3.1-.5.1-.7-.2S95.4,33.8,95.6,33.7Z"/>
              <path d="M92.7,36c-.1.1-.2.3-.1.4a.4.4,0,0,0,.6-.4A.4.4,0,0,0,92.7,36Z"/>
            </g>
            <g>
              <line x1="98.9" y1="30" x2="95.9" y2="34.1" style="fill: none;stroke: #000;stroke-miterlimit: 10;stroke-width: 0.205888px"/>
              <path d="M98.5,29.7a.5.5,0,1,1,.1.7A.6.6,0,0,1,98.5,29.7Z"/>
              <path d="M95.6,33.9c-.1.1,0,.3.1.4a.3.3,0,0,0,.4,0,.4.4,0,0,0,0-.5A.4.4,0,0,0,95.6,33.9Z"/>
            </g>
            <g>
              <line x1="100.1" y1="33.9" x2="98.9" y2="30" style="fill: none;stroke: #000;stroke-miterlimit: 10;stroke-width: 0.205888px"/>
              <path d="M100.5,33.8a.4.4,0,0,1-.3.5.4.4,0,0,1-.6-.3c0-.2.1-.5.3-.5A.4.4,0,0,1,100.5,33.8Z"/>
              <path d="M99.2,29.9l-.4-.2a.5.5,0,0,0-.2.4c.1.2.2.3.4.2S99.3,30.1,99.2,29.9Z"/>
            </g>
            <g>
              <line x1="104.8" y1="35.6" x2="100.1" y2="33.9" style="fill: none;stroke: #000;stroke-miterlimit: 10;stroke-width: 0.205888px"/>
              <path d="M104.9,35.2a.4.4,0,0,1,.3.6.5.5,0,0,1-.6.3.7.7,0,0,1-.3-.6A.4.4,0,0,1,104.9,35.2Z"/>
              <path d="M100.2,33.6c-.2,0-.4,0-.4.2s0,.3.2.4.3,0,.4-.2A.8.8,0,0,0,100.2,33.6Z"/>
            </g>
            <g>
              <line x1="90.4" y1="11.9" x2="89.8" y2="19.5" style="fill: none;stroke: #000;stroke-miterlimit: 10;stroke-width: 0.205888px"/>
              <path d="M89.9,11.9a.5.5,0,0,1,.5-.5c.3,0,.5.3.4.5a.5.5,0,0,1-.5.5A.7.7,0,0,1,89.9,11.9Z"/>
              <path d="M89.5,19.5a.3.3,0,0,0,.3.3c.2.1.3-.1.3-.2s-.1-.4-.3-.4A.3.3,0,0,0,89.5,19.5Z"/>
            </g>
            <g>
              <line x1="82.2" y1="15.9" x2="90.4" y2="11.9" style="fill: none;stroke: #000;stroke-miterlimit: 10;stroke-width: 0.205888px"/>
              <path d="M82.4,16.3a.4.4,0,1,1,.2-.6A.5.5,0,0,1,82.4,16.3Z"/>
              <path d="M90.5,12.2a.4.4,0,0,0,.2-.4.4.4,0,0,0-.5-.2c-.1.1-.2.3-.1.4A.4.4,0,0,0,90.5,12.2Z"/>
            </g>
            <g>
              <line x1="89.8" y1="19.5" x2="82.2" y2="15.9" style="fill: none;stroke: #000;stroke-miterlimit: 10;stroke-width: 0.205888px"/>
              <path d="M90,19.1c.3.1.4.4.2.6a.4.4,0,0,1-.6.3.6.6,0,0,1-.2-.7A.5.5,0,0,1,90,19.1Z"/>
              <path d="M82.3,15.6c-.1-.1-.3,0-.4.2a.4.4,0,0,0,.2.4c.1.1.3,0,.4-.2S82.5,15.7,82.3,15.6Z"/>
            </g>
            <g>
              <line x1="76.2" y1="21.9" x2="89.8" y2="19.5" style="fill: none;stroke: #000;stroke-miterlimit: 10;stroke-width: 0.205888px"/>
              <path d="M76.3,22.3a.5.5,0,0,1-.6-.3.7.7,0,0,1,.4-.6.5.5,0,0,1,.6.4A.5.5,0,0,1,76.3,22.3Z"/>
              <path d="M89.9,19.8c.1,0,.3-.1.2-.3a.3.3,0,0,0-.3-.3c-.2.1-.3.2-.3.4S89.7,19.9,89.9,19.8Z"/>
            </g>
            <g>
              <line x1="65.9" y1="28.8" x2="76.2" y2="21.9" style="fill: none;stroke: #000;stroke-miterlimit: 10;stroke-width: 0.205888px"/>
              <path d="M66.1,29.2a.4.4,0,0,1-.6-.1.6.6,0,0,1,.1-.7.7.7,0,0,1,.7.2A.4.4,0,0,1,66.1,29.2Z"/>
              <path d="M76.4,22.1c.1-.1.2-.2.1-.4a.4.4,0,1,0-.6.4Z"/>
            </g>
            <g>
              <line x1="63.3" y1="22.9" x2="65.9" y2="28.8" style="fill: none;stroke: #000;stroke-miterlimit: 10;stroke-width: 0.205888px"/>
              <path d="M62.9,23a.5.5,0,0,1,.2-.6c.3-.1.5,0,.7.3s-.1.5-.3.6A.4.4,0,0,1,62.9,23Z"/>
              <path d="M65.6,29c.1.1.2.2.4.1s.2-.2.2-.4a.4.4,0,0,0-.4-.2A.4.4,0,0,0,65.6,29Z"/>
            </g>
            <g>
              <line x1="52.1" y1="29.5" x2="63.3" y2="22.9" style="fill: none;stroke: #000;stroke-miterlimit: 10;stroke-width: 0.205888px"/>
              <path d="M52.4,29.9a.6.6,0,0,1-.7-.2.5.5,0,0,1,.2-.6.4.4,0,0,1,.6.1A.5.5,0,0,1,52.4,29.9Z"/>
              <path d="M63.5,23.1c.1-.1.2-.3.1-.4s-.3-.2-.4-.1a.2.2,0,0,0-.1.4C63.1,23.2,63.3,23.2,63.5,23.1Z"/>
            </g>
            <g>
              <line x1="62.9" y1="37" x2="52.1" y2="29.5" style="fill: none;stroke: #000;stroke-miterlimit: 10;stroke-width: 0.205888px"/>
              <path d="M63.1,36.7a.4.4,0,1,1-.6.1A.4.4,0,0,1,63.1,36.7Z"/>
              <path d="M52.3,29.2c-.1-.1-.3,0-.4.1a.3.3,0,0,0,0,.4c.2.1.4.1.5-.1S52.4,29.3,52.3,29.2Z"/>
            </g>
            <g>
              <line x1="73.1" y1="24" x2="62.9" y2="37" style="fill: none;stroke: #000;stroke-miterlimit: 10;stroke-width: 0.205888px"/>
              <path d="M72.7,23.7a.6.6,0,0,1,.7-.1.5.5,0,0,1,0,.7c-.1.2-.4.2-.6.1A.5.5,0,0,1,72.7,23.7Z"/>
              <path d="M62.6,36.9a.3.3,0,1,0,.5.3.3.3,0,0,0,0-.4C62.9,36.7,62.7,36.7,62.6,36.9Z"/>
            </g>
            <g>
              <line x1="71.7" y1="32.7" x2="73.1" y2="24" style="fill: none;stroke: #000;stroke-miterlimit: 10;stroke-width: 0.205888px"/>
              <path d="M72.2,32.7c0,.3-.3.5-.5.4s-.5-.2-.4-.5.3-.4.5-.4A.5.5,0,0,1,72.2,32.7Z"/>
              <path d="M73.4,24a.3.3,0,0,0-.3-.3c-.2,0-.3.1-.3.2s0,.4.2.4S73.3,24.2,73.4,24Z"/>
            </g>
            <g>
              <line x1="31" y1="42.1" x2="20.7" y2="42.2" style="fill: none;stroke: #000;stroke-miterlimit: 10;stroke-width: 0.205888px"/>
              <path d="M31,41.6a.5.5,0,0,1,.5.5.5.5,0,0,1-1,0A.5.5,0,0,1,31,41.6Z"/>
              <path d="M20.7,41.9a.3.3,0,0,0-.3.3.3.3,0,0,0,.3.3.5.5,0,0,0,.3-.3A.3.3,0,0,0,20.7,41.9Z"/>
            </g>
            <g>
              <line x1="44.9" y1="34.8" x2="31" y2="42.1" style="fill: none;stroke: #000;stroke-miterlimit: 10;stroke-width: 0.205888px"/>
              <path d="M44.7,34.3a.6.6,0,0,1,.7.2.6.6,0,0,1-.2.7.5.5,0,1,1-.5-.9Z"/>
              <path d="M30.8,41.8c-.1.1-.2.3-.1.4a.2.2,0,0,0,.4.1c.2,0,.2-.2.2-.4A.4.4,0,0,0,30.8,41.8Z"/>
            </g>
            <g>
              <line x1="62.9" y1="37" x2="44.9" y2="34.8" style="fill: none;stroke: #000;stroke-miterlimit: 10;stroke-width: 0.205888px"/>
              <path d="M62.9,36.6c.3,0,.5.2.4.5s-.2.4-.5.4-.4-.3-.4-.5S62.7,36.5,62.9,36.6Z"/>
              <path d="M45,34.5c-.2-.1-.3,0-.4.2s.1.3.3.4.3-.1.4-.3A.3.3,0,0,0,45,34.5Z"/>
            </g>
          </g>
        </g>
        <g>
          <g>
            <line x1="120.8" y1="20.9" x2="118.6" y2="19" style="fill: none;stroke: #000;stroke-miterlimit: 10;stroke-width: 0.084314px"/>
            <path d="M121,20.7a.2.2,0,0,1,.1.4c-.1.2-.3.2-.5.1a.4.4,0,0,1,0-.5Z"/>
            <path d="M118.8,18.8a.3.3,0,0,0-.4,0,.4.4,0,0,0,0,.5c.2.1.4.1.5-.1A.2.2,0,0,0,118.8,18.8Z"/>
          </g>
          <g>
            <line x1="120.7" y1="16.9" x2="120.8" y2="20.9" style="fill: none;stroke: #000;stroke-miterlimit: 10;stroke-width: 0.084314px"/>
            <path d="M120.4,17a.4.4,0,1,1,.4.3A.4.4,0,0,1,120.4,17Z"/>
            <path d="M120.5,20.9a.3.3,0,0,0,.3.3c.2,0,.4-.1.4-.3s-.2-.3-.4-.3A.3.3,0,0,0,120.5,20.9Z"/>
          </g>
          <g>
            <line x1="123.2" y1="21.9" x2="120.7" y2="16.9" style="fill: none;stroke: #000;stroke-miterlimit: 10;stroke-width: 0.084314px"/>
            <path d="M123.5,21.8c.1.2,0,.4-.1.4s-.4,0-.4-.1-.1-.4.1-.4S123.4,21.6,123.5,21.8Z"/>
            <path d="M121,16.8c0-.1-.2-.2-.4-.1s-.2.2-.1.4.2.2.4.1S121.1,17,121,16.8Z"/>
          </g>
          <g>
            <line x1="108.8" y1="22.4" x2="123.2" y2="21.9" style="fill: none;stroke: #000;stroke-miterlimit: 10;stroke-width: 0.084314px"/>
            <path d="M108.8,22.7c-.2,0-.3-.1-.4-.3a.4.4,0,0,1,.4-.3.3.3,0,0,1,.3.3A.3.3,0,0,1,108.8,22.7Z"/>
            <path d="M123.3,22.3a.4.4,0,1,0-.4-.3A.4.4,0,0,0,123.3,22.3Z"/>
          </g>
          <g>
            <line x1="100.3" y1="14.3" x2="108.8" y2="22.4" style="fill: none;stroke: #000;stroke-miterlimit: 10;stroke-width: 0.084314px"/>
            <path d="M100.1,14.5a.3.3,0,0,1,0-.4h.5a.3.3,0,0,1,0,.4C100.4,14.6,100.2,14.7,100.1,14.5Z"/>
            <path d="M108.5,22.7c.2.1.4.1.5-.1a.3.3,0,0,0,0-.4h-.5A.4.4,0,0,0,108.5,22.7Z"/>
          </g>
          <g>
            <line x1="91.6" y1="24.9" x2="100.3" y2="14.3" style="fill: none;stroke: #000;stroke-miterlimit: 10;stroke-width: 0.084314px"/>
            <path d="M91.8,25.1h-.4c-.1-.1-.2-.3-.1-.4s.4-.2.5-.1A.4.4,0,0,1,91.8,25.1Z"/>
            <path d="M100.6,14.5a.2.2,0,0,0-.1-.4c-.1-.2-.3-.1-.4,0a.3.3,0,0,0,0,.4A.3.3,0,0,0,100.6,14.5Z"/>
          </g>
          <g>
            <line x1="88.4" y1="23.1" x2="91.6" y2="24.9" style="fill: none;stroke: #000;stroke-miterlimit: 10;stroke-width: 0.084314px"/>
            <path d="M88.2,23.3c-.1-.1-.2-.2-.1-.4a.2.2,0,0,1,.4-.1c.2.1.3.3.2.4S88.4,23.4,88.2,23.3Z"/>
            <path d="M91.4,25.1c.2.1.4.1.5-.1s0-.3-.2-.4a.2.2,0,0,0-.4.1C91.2,24.9,91.3,25,91.4,25.1Z"/>
          </g>
          <g>
            <line x1="76.2" y1="21.9" x2="88.4" y2="23.1" style="fill: none;stroke: #000;stroke-miterlimit: 10;stroke-width: 0.084314px"/>
            <path d="M76.2,22.2a.3.3,0,0,1-.3-.3c0-.2.2-.4.3-.3a.3.3,0,0,1,.3.3A.3.3,0,0,1,76.2,22.2Z"/>
            <path d="M88.4,23.4a.3.3,0,0,0,.3-.3c0-.2-.1-.3-.3-.4a.3.3,0,0,0-.3.3C88.1,23.2,88.2,23.4,88.4,23.4Z"/>
          </g>
          <g>
            <line x1="76.6" y1="18.6" x2="76.2" y2="21.9" style="fill: none;stroke: #000;stroke-miterlimit: 10;stroke-width: 0.084314px"/>
            <path d="M76.3,18.6c.1-.2.2-.3.4-.3s.3.2.3.4-.2.3-.4.3S76.3,18.8,76.3,18.6Z"/>
            <path d="M75.9,21.8c0,.2.1.4.3.4a.3.3,0,1,0,0-.6C76.1,21.5,75.9,21.7,75.9,21.8Z"/>
          </g>
          <g>
            <line x1="87.1" y1="11.4" x2="76.6" y2="18.6" style="fill: none;stroke: #000;stroke-miterlimit: 10;stroke-width: 0.084314px"/>
            <path d="M86.9,11.2c.2-.1.4-.1.5.1s0,.3-.1.4a.2.2,0,0,1-.4-.1A.3.3,0,0,1,86.9,11.2Z"/>
            <path d="M76.5,18.4a.3.3,0,1,0,.4.1A.2.2,0,0,0,76.5,18.4Z"/>
          </g>
          <g>
            <line x1="93.4" y1="7.9" x2="87.1" y2="11.4" style="fill: none;stroke: #000;stroke-miterlimit: 10;stroke-width: 0.084314px"/>
            <path d="M93.2,7.6a.4.4,0,0,1,.5.1.4.4,0,0,1-.2.5c-.1.1-.3,0-.4-.2S93.1,7.7,93.2,7.6Z"/>
            <path d="M87,11.2c-.2.1-.2.2-.1.4s.2.2.4.1.2-.3.1-.4A.2.2,0,0,0,87,11.2Z"/>
          </g>
          <g>
            <line x1="98" y1="8" x2="93.4" y2="7.9" style="fill: none;stroke: #000;stroke-miterlimit: 10;stroke-width: 0.084314px"/>
            <path d="M98,7.7a.3.3,0,1,1-.3.3A.3.3,0,0,1,98,7.7Z"/>
            <path d="M93.4,7.6a.3.3,0,1,0,.3.3A.3.3,0,0,0,93.4,7.6Z"/>
          </g>
          <g>
            <line x1="105.7" y1="5.5" x2="98" y2="8" style="fill: none;stroke: #000;stroke-miterlimit: 10;stroke-width: 0.084314px"/>
            <path d="M105.7,5.2l.4.2c0,.2-.1.4-.3.4s-.3,0-.4-.2A.5.5,0,0,1,105.7,5.2Z"/>
            <path d="M97.9,7.7c-.1,0-.2.2-.2.4s.2.3.4.2.3-.2.2-.4S98.1,7.6,97.9,7.7Z"/>
          </g>
          <g>
            <line x1="110.9" y1="5" x2="105.7" y2="5.5" style="fill: none;stroke: #000;stroke-miterlimit: 10;stroke-width: 0.084314px"/>
            <path d="M110.9,4.7a.3.3,0,0,1,.3.3.3.3,0,0,1-.3.3c-.1.1-.3-.1-.3-.3A.3.3,0,0,1,110.9,4.7Z"/>
            <path d="M105.7,5.2c-.2,0-.3.2-.3.4s.2.3.4.2a.3.3,0,0,0,.3-.3C106,5.3,105.9,5.2,105.7,5.2Z"/>
          </g>
          <g>
            <line x1="117.1" y1="1.7" x2="110.9" y2="5" style="fill: none;stroke: #000;stroke-miterlimit: 10;stroke-width: 0.084314px"/>
            <path d="M116.9,1.5c.2-.1.4-.1.5.1s0,.3-.2.4-.3,0-.4-.1S116.8,1.5,116.9,1.5Z"/>
            <path d="M110.7,4.7a.4.4,0,0,0-.1.5c.1.1.3.2.4.1s.3-.3.2-.4S110.9,4.7,110.7,4.7Z"/>
          </g>
          <g>
            <line x1="143.3" y1="18.7" x2="140.6" y2="21.9" style="fill: none;stroke: #000;stroke-miterlimit: 10;stroke-width: 0.084314px"/>
            <path d="M143.1,18.4h.4c.2.1.2.3.1.5a.4.4,0,0,1-.5-.5Z"/>
            <path d="M140.3,21.7a.2.2,0,0,0,.1.4c.1.2.3.1.4,0a.3.3,0,0,0,0-.4A.3.3,0,0,0,140.3,21.7Z"/>
          </g>
          <g>
            <line x1="146.7" y1="19.9" x2="143.3" y2="18.7" style="fill: none;stroke: #000;stroke-miterlimit: 10;stroke-width: 0.084314px"/>
            <path d="M146.8,19.6c.2.1.3.2.2.4s-.2.3-.4.2-.2-.2-.2-.4S146.7,19.5,146.8,19.6Z"/>
            <path d="M143.4,18.4c-.1-.1-.3,0-.4.1a.8.8,0,0,0,.2.5c.2,0,.4-.1.4-.2S143.6,18.4,143.4,18.4Z"/>
          </g>
          <g>
            <line x1="147.5" y1="22.8" x2="146.7" y2="19.9" style="fill: none;stroke: #000;stroke-miterlimit: 10;stroke-width: 0.084314px"/>
            <path d="M147.8,22.8a.3.3,0,0,1-.3.3c-.1.1-.3,0-.3-.2s0-.3.2-.4S147.7,22.6,147.8,22.8Z"/>
            <path d="M147,19.8c0-.2-.2-.3-.4-.2s-.2.2-.2.4a.5.5,0,0,0,.4.2C147,20.2,147.1,20,147,19.8Z"/>
          </g>
          <g>
            <line x1="142" y1="28.5" x2="147.5" y2="22.8" style="fill: none;stroke: #000;stroke-miterlimit: 10;stroke-width: 0.084314px"/>
            <path d="M142.2,28.7a.3.3,0,0,1-.4,0,.4.4,0,0,1,0-.5h.4C142.4,28.3,142.4,28.5,142.2,28.7Z"/>
            <path d="M147.7,23.1a.4.4,0,1,0-.5,0Z"/>
          </g>
          <g>
            <line x1="133.8" y1="29.2" x2="142" y2="28.5" style="fill: none;stroke: #000;stroke-miterlimit: 10;stroke-width: 0.084314px"/>
            <path d="M133.8,29.5a.3.3,0,0,1,0-.6.3.3,0,0,1,0,.6Z"/>
            <path d="M142,28.8c.2,0,.3-.2.3-.4a.3.3,0,0,0-.3-.3c-.2.1-.3.2-.3.4A.3.3,0,0,0,142,28.8Z"/>
          </g>
          <g>
            <line x1="133" y1="34.5" x2="133.8" y2="29.2" style="fill: none;stroke: #000;stroke-miterlimit: 10;stroke-width: 0.084314px"/>
            <path d="M133.3,34.6c0,.2-.2.3-.4.3a.5.5,0,0,1-.2-.4.3.3,0,0,1,.3-.3C133.2,34.3,133.3,34.4,133.3,34.6Z"/>
            <path d="M134.1,29.3a.3.3,0,0,0-.2-.4c-.2,0-.4.1-.4.3a.3.3,0,0,0,.3.3C133.9,29.6,134.1,29.4,134.1,29.3Z"/>
          </g>
          <g>
            <line x1="127.2" y1="27.5" x2="133" y2="34.5" style="fill: none;stroke: #000;stroke-miterlimit: 10;stroke-width: 0.084314px"/>
            <path d="M127,27.7a.3.3,0,0,1,0-.4.4.4,0,0,1,.5,0c.1.2.1.4-.1.5A.2.2,0,0,1,127,27.7Z"/>
            <path d="M132.7,34.7c.2.2.4.2.5.1a.3.3,0,0,0,0-.5h-.4C132.7,34.4,132.6,34.6,132.7,34.7Z"/>
          </g>
          <g>
            <line x1="121" y1="28.6" x2="127.2" y2="27.5" style="fill: none;stroke: #000;stroke-miterlimit: 10;stroke-width: 0.084314px"/>
            <path d="M121.1,28.9c-.2,0-.3-.1-.4-.3a.3.3,0,0,1,.3-.3c.2-.1.3.1.4.2S121.3,28.9,121.1,28.9Z"/>
            <path d="M127.3,27.8a.3.3,0,0,0,.3-.3c-.1-.2-.2-.3-.4-.3s-.3.2-.3.4S127.1,27.9,127.3,27.8Z"/>
          </g>
          <g>
            <line x1="116" y1="24.3" x2="121" y2="28.6" style="fill: none;stroke: #000;stroke-miterlimit: 10;stroke-width: 0.084314px"/>
            <path d="M115.8,24.5a.2.2,0,0,1-.1-.4c.2-.2.4-.2.5-.1a.4.4,0,0,1,0,.5A.3.3,0,0,1,115.8,24.5Z"/>
            <path d="M120.8,28.8h.5a.4.4,0,0,0,0-.5c-.2-.1-.4-.1-.5.1A.3.3,0,0,0,120.8,28.8Z"/>
          </g>
          <g>
            <line x1="109.9" y1="31.2" x2="116" y2="24.3" style="fill: none;stroke: #000;stroke-miterlimit: 10;stroke-width: 0.084314px"/>
            <path d="M110.1,31.4a.3.3,0,0,1-.4,0,.2.2,0,0,1-.1-.4c.1-.2.3-.2.5-.1A.4.4,0,0,1,110.1,31.4Z"/>
            <path d="M116.2,24.5a.4.4,0,0,0,0-.5.2.2,0,0,0-.4.1.2.2,0,0,0,0,.4A.3.3,0,0,0,116.2,24.5Z"/>
          </g>
          <g>
            <line x1="103.5" y1="30.9" x2="109.9" y2="31.2" style="fill: none;stroke: #000;stroke-miterlimit: 10;stroke-width: 0.084314px"/>
            <path d="M103.5,31.2a.3.3,0,0,1-.3-.3.3.3,0,0,1,.3-.3c.2,0,.4.1.3.3A.3.3,0,0,1,103.5,31.2Z"/>
            <path d="M109.9,31.5a.3.3,0,0,0,.3-.3.3.3,0,0,0-.3-.3c-.2-.1-.3.1-.4.3A.4.4,0,0,0,109.9,31.5Z"/>
          </g>
          <g>
            <line x1="104.8" y1="35.6" x2="103.5" y2="30.9" style="fill: none;stroke: #000;stroke-miterlimit: 10;stroke-width: 0.084314px"/>
            <path d="M105.1,35.6c0,.1-.1.3-.2.3s-.4,0-.4-.2,0-.3.2-.4S105,35.4,105.1,35.6Z"/>
            <path d="M103.8,30.8c0-.2-.2-.3-.3-.2s-.3.2-.3.4l.4.2C103.8,31.2,103.9,31,103.8,30.8Z"/>
          </g>
          <g>
            <line x1="98.5" y1="35.3" x2="116.2" y2="39.3" style="fill: none;stroke: #000;stroke-miterlimit: 10;stroke-width: 0.084314px"/>
            <path d="M98.4,35.6c-.2-.1-.3-.2-.2-.4s.2-.3.4-.2.2.2.2.3S98.6,35.6,98.4,35.6Z"/>
            <path d="M116.1,39.6a.3.3,0,0,0,.4-.2c.1-.2,0-.4-.2-.4s-.4.1-.4.2S116,39.6,116.1,39.6Z"/>
          </g>
          <g>
            <line x1="83.1" y1="41.6" x2="76.9" y2="41.1" style="fill: none;stroke: #000;stroke-miterlimit: 10;stroke-width: 0.084314px"/>
            <path d="M83.1,41.3a.3.3,0,0,1,0,.6.3.3,0,0,1-.3-.3C82.8,41.4,83,41.2,83.1,41.3Z"/>
            <path d="M76.9,40.8a.3.3,0,0,0,0,.6.3.3,0,1,0,0-.6Z"/>
          </g>
          <g>
            <line x1="92.9" y1="36.2" x2="83.1" y2="41.6" style="fill: none;stroke: #000;stroke-miterlimit: 10;stroke-width: 0.084314px"/>
            <path d="M92.7,35.9c.2,0,.4,0,.5.2s0,.3-.1.4a.4.4,0,1,1-.4-.6Z"/>
            <path d="M83,41.3a.4.4,0,0,0-.2.4c.1.2.3.2.5.2a.4.4,0,0,0,.1-.5C83.3,41.3,83.1,41.2,83,41.3Z"/>
          </g>
          <g>
            <line x1="31" y1="42.1" x2="13.8" y2="34.8" style="fill: none;stroke: #000;stroke-miterlimit: 10;stroke-width: 0.084314px"/>
            <path d="M31.1,41.8c.2,0,.3.2.2.4l-.4.2a.4.4,0,0,1-.2-.5C30.8,41.8,31,41.7,31.1,41.8Z"/>
            <path d="M14,34.5c-.2-.1-.4,0-.4.1a.4.4,0,0,0,.1.5c.2,0,.4,0,.4-.2S14.1,34.5,14,34.5Z"/>
          </g>
          <g>
            <line x1="39.9" y1="40.3" x2="31" y2="42.1" style="fill: none;stroke: #000;stroke-miterlimit: 10;stroke-width: 0.084314px"/>
            <path d="M39.8,40a.5.5,0,0,1,.4.2c0,.2-.1.4-.3.4s-.3-.1-.4-.2S39.6,40,39.8,40Z"/>
            <path d="M30.9,41.8c-.1,0-.3.2-.2.3s.2.3.4.3a.5.5,0,0,0,.2-.4C31.3,41.8,31.1,41.7,30.9,41.8Z"/>
          </g>
          <g>
            <line x1="44.9" y1="34.8" x2="39.9" y2="40.3" style="fill: none;stroke: #000;stroke-miterlimit: 10;stroke-width: 0.084314px"/>
            <path d="M44.7,34.5a.4.4,0,1,1,0,.5A.4.4,0,0,1,44.7,34.5Z"/>
            <path d="M39.6,40.1a.3.3,0,0,0,0,.4c.2.2.4.2.5,0a.3.3,0,0,0,0-.4A.4.4,0,0,0,39.6,40.1Z"/>
          </g>
          <g>
            <line x1="54.3" y1="43.7" x2="44.9" y2="34.8" style="fill: none;stroke: #000;stroke-miterlimit: 10;stroke-width: 0.084314px"/>
            <path d="M54.5,43.4c.1.2.2.4,0,.5a.3.3,0,1,1-.4-.4A.2.2,0,0,1,54.5,43.4Z"/>
            <path d="M45.2,34.5a.4.4,0,1,0,0,.5A.4.4,0,0,0,45.2,34.5Z"/>
          </g>
          <g>
            <line x1="51.5" y1="22.1" x2="43.3" y2="14.2" style="fill: none;stroke: #000;stroke-miterlimit: 10;stroke-width: 0.084314px"/>
            <path d="M51.7,21.9c.2.1.2.3.1.5a.4.4,0,0,1-.5-.5Z"/>
            <path d="M43.5,13.9h-.4c-.2.2-.2.4,0,.5h.4A.4.4,0,0,0,43.5,13.9Z"/>
          </g>
          <g>
            <line x1="65.9" y1="28.8" x2="51.5" y2="22.1" style="fill: none;stroke: #000;stroke-miterlimit: 10;stroke-width: 0.084314px"/>
            <path d="M66,28.5c.2.1.2.3.2.5s-.3.2-.4.1-.3-.2-.2-.4A.4.4,0,0,1,66,28.5Z"/>
            <path d="M51.7,21.8c-.2,0-.4,0-.5.2s0,.3.2.4.3,0,.4-.1A.4.4,0,0,0,51.7,21.8Z"/>
          </g>
          <g>
            <line x1="25" y1="73" x2="31.3" y2="84.3" style="fill: none;stroke: #000;stroke-miterlimit: 10;stroke-width: 0.084314px"/>
            <path d="M24.7,73.1c-.1-.1,0-.3.2-.4s.3,0,.4.1a.4.4,0,0,1-.1.5C25,73.3,24.8,73.3,24.7,73.1Z"/>
            <path d="M31,84.5c.1.1.3.2.4.1a.2.2,0,0,0,.1-.4c0-.2-.2-.2-.4-.2A.4.4,0,0,0,31,84.5Z"/>
          </g>
          <g>
            <line x1="17.2" y1="72.8" x2="25" y2="73" style="fill: none;stroke: #000;stroke-miterlimit: 10;stroke-width: 0.084314px"/>
            <path d="M17.2,73.1c-.2,0-.4-.1-.4-.3s.2-.3.4-.3a.3.3,0,0,1,0,.6Z"/>
            <path d="M25,73.3a.3.3,0,1,0-.3-.3A.3.3,0,0,0,25,73.3Z"/>
          </g>
          <g>
            <line x1="22.4" y1="62.8" x2="8.7" y2="72.6" style="fill: none;stroke: #000;stroke-miterlimit: 10;stroke-width: 0.084314px"/>
            <path d="M22.2,62.5a.3.3,0,0,1,.3.5.3.3,0,0,1-.4,0C22,62.8,22,62.6,22.2,62.5Z"/>
            <path d="M8.6,72.3c-.2.1-.2.3-.1.5a.3.3,0,0,0,.4,0,.2.2,0,0,0,.1-.4C8.9,72.3,8.7,72.2,8.6,72.3Z"/>
          </g>
          <g>
            <line x1="25" y1="73" x2="22.4" y2="62.8" style="fill: none;stroke: #000;stroke-miterlimit: 10;stroke-width: 0.084314px"/>
            <path d="M25.3,72.9c.1.2,0,.3-.2.4s-.4-.1-.4-.2.1-.4.2-.4S25.3,72.7,25.3,72.9Z"/>
            <path d="M22.7,62.7c-.1-.2-.3-.3-.4-.2s-.3.2-.3.4l.4.2C22.6,63,22.7,62.9,22.7,62.7Z"/>
          </g>
          <g>
            <line x1="36.4" y1="57.9" x2="25" y2="73" style="fill: none;stroke: #000;stroke-miterlimit: 10;stroke-width: 0.084314px"/>
            <path d="M36.2,57.8a.3.3,0,0,1,.5.3c-.1.2-.3.2-.5.1A.3.3,0,0,1,36.2,57.8Z"/>
            <path d="M24.8,72.8c-.2.1-.1.3,0,.4h.5a.4.4,0,0,0-.1-.5A.2.2,0,0,0,24.8,72.8Z"/>
          </g>
        </g>
      </g>
    </g>
  </g>
</svg>
