<svg xmlns="http://www.w3.org/2000/svg" viewBox="0 0 4.96 1.92">
  <defs>
    <style>
      .cls-1 {
        fill: none;
        stroke: #000;
        stroke-linejoin: round;
        stroke-width: 0.08px;
      }
    </style>
  </defs>
  <g id="Layer_2" data-name="Layer 2">
    <g id="Layer_2-2" data-name="Layer 2">
      <g>
        <g>
          <line class="cls-1" x1="0.18" y1="1.74" x2="4.79" y2="0.21"/>
          <path d="M.21,1.86a.13.13,0,0,1-.15-.08.12.12,0,0,1,.08-.15.12.12,0,0,1,.15.08A.12.12,0,0,1,.21,1.86Z"/>
          <path d="M4.84.38A.18.18,0,0,0,5,.16.16.16,0,0,0,4.73.05a.18.18,0,0,0-.11.22A.18.18,0,0,0,4.84.38Z"/>
        </g>
        <g>
          <line class="cls-1" x1="1.16" y1="0.18" x2="0.18" y2="1.74"/>
          <path d="M1.06.11a.13.13,0,0,1,.17,0,.11.11,0,0,1,0,.16.12.12,0,0,1-.16,0A.14.14,0,0,1,1.06.11Z"/>
          <path d="M0,1.65a.18.18,0,0,0,.05.24.18.18,0,0,0,.25,0,.19.19,0,0,0-.06-.25A.18.18,0,0,0,0,1.65Z"/>
        </g>
        <g>
          <line class="cls-1" x1="4.79" y1="0.21" x2="1.16" y2="0.18"/>
          <path d="M4.79.1A.1.1,0,0,1,4.9.21a.11.11,0,0,1-.11.12A.12.12,0,0,1,4.67.21.11.11,0,0,1,4.79.1Z"/>
          <path d="M1.17,0A.18.18,0,0,0,1,.17a.18.18,0,0,0,.35,0A.18.18,0,0,0,1.17,0Z"/>
        </g>
      </g>
    </g>
  </g>
</svg>
